{"areas": {"0A-001": {"0": 19.8}, "0A-002": {"0": 19.6}, "0A-003": {"0": 20}, "0A-006": {"0": 18.1}, "0A-008": {"0": 19.5}, "0A-009": {"0": 17.1}, "0A-010": {"0": 19.8}, "0B-agora": {"0": 21.2}, "0B-001": {"0": 19.6}, "0B-002_T9": {"0": 20.8}, "0B-002_T10": {"0": 21}, "0B-003": {"0": 20.6}, "0B-004": {"0": 20.2}, "0B-005": {"0": 22}, "0B-006": {"0": 17.9}, "0B-007": {"0": 22.2, "1": 471}, "0B-008": {"0": 17.2}, "0B-009": {"0": 14.6}, "0B-010": {"0": 20.5}, "0B-011": {"0": 18.1}, "0B-012": {"0": 17.1}, "0B-013": {"0": 18}, "0B-014": {"0": 14.7}, "0B-015": {"0": 19, "1": 453}, "0B-203": {"0": 17.6}, "0B-401": {"0": 21.8}, "0B-406": {"0": 21}, "0D-Salle_Poly": {"0": 20.3}, "0D-001": {"0": 21}, "0D-003": {"0": 20.7, "1": 410}, "0D-004": {"0": 21, "1": 440}, "0D-007": {"0": 23.6, "1": 611}, "0D-009": {"0": 21.2}, "0D-012": {"0": 21.7}, "0D-021": {"0": 23.6}, "0D-022": {"0": 21.8}, "0D-023": {"0": 21.1}, "0D-025": {"0": 25.6}, "0D-105": {"0": 21.3}, "0D-200": {"0": 18.3}, "1A-002": {"0": 21.4, "1": 435}, "1A-003": {"0": 22}, "1A-006": {"0": 21.4}, "1A-007": {"0": 22.1}, "1A-008": {"0": 21.9}, "1A-009": {"0": 21.4}, "1A-202": {"0": 21.4}, "1B-001-AJ-AH": {"0": 22.4}, "1B-001-AL-AJ": {"0": 21.1, "1": 410}, "1B-001-AO-AL": {"0": 20.1}, "1B-002": {"0": 21.6, "1": 416}, "1B-003": {"0": 21.9, "1": 400}, "1B-004": {"0": 22, "1": 409}, "1B-005": {"0": 21.8, "1": 413}, "1B-006": {"0": 16.8}, "1B-007": {"0": 22, "1": 676}, "1B-008": {"0": 21.6}, "1B-009": {"0": 21.1}, "1B-010": {"0": 21.7}, "1B-011": {"0": 21.8}, "1B-012": {"0": 22.8, "1": 674}, "1B-013": {"0": 22.1}, "1B-014": {"0": 21.9}, "1B-015": {"0": 22.2}, "1B-016": {"0": 22.1}, "1B-017": {"0": 22.2}, "1B-018": {"0": 22.1}, "1B-202": {"0": 20.5}, "1C-001": {"0": 20.3, "1": 460}, "1C-002": {"0": 21.6, "1": 499}, "1C-003": {"0": 21.3}, "1C-004": {"0": 21.9}, "1C-007": {"0": 21.9}, "1C-008": {"0": 0}, "1C-009": {"0": 0}, "1C-010": {"0": 0}, "1C-011": {"0": 21.9}, "1C-012": {"0": 22.2}, "1C-013": {"0": 22.1}, "1C-201": {"0": 18.5}, "1D-001": {"0": 20.9}, "1D-002": {"0": 22.1}, "1D-004": {"0": 22.6}, "1D-005": {"0": 22.4}, "1D-006": {"0": 22.4}, "1D-007": {"0": 22.3}, "1D-008": {"0": 21.8}, "1D-009": {"0": 22}, "1D-010": {"0": 22.3}, "1D-011": {"0": 22.5}, "1D-012": {"0": 22.5}, "1D-013": {"0": 22.3}, "1D-014": {"0": 22.4}, "1D-015": {"0": 22.5}, "1D-016": {"0": 20.6}, "1D-017": {"0": 22.5}, "1D-018": {"0": 21.8}, "1D-020": {"0": 21.5}, "1D-021": {"0": 22.3}, "1D-022": {"0": 22.3}, "1D-202": {"0": 19.8}, "1D-204": {"0": 19.8, "1": 488}, "1D-205": {"0": 18.4}, "2A-002": {"0": 21.8}, "2A-003": {"0": 22.2, "1": 589}, "2A-004": {"0": 22.4, "1": 429}, "2A-005": {"0": 22.2, "1": 442}, "2A-006": {"0": 22.3, "1": 493}, "2A-007": {"0": 22.4, "1": 737}, "2A-201": {"0": 20.4}, "2A-204": {"0": 20.8}, "2B-001": {"0": 23.3, "1": 676}, "2B-002": {"0": 21.9, "1": 699}, "2B-003": {"0": 22.7}, "2B-005": {"0": 21.8}, "2B-006": {"0": 22}, "2B-007": {"0": 22.3}, "2B-008": {"0": 22.1}, "2B-009": {"0": 21.9, "1": 594}, "2B-010": {"0": 22.1}, "2B-012": {"0": 22.4}, "2B-013": {"0": 21.4}, "2B-202": {"0": 21.3}, "2B-210-203": {"0": 20.4}, "2C-001": {"0": 22.2}, "2C-002": {"0": 22.3, "1": 620}, "2C-003": {"0": 21.6, "1": 554}, "2C-004": {"0": 22, "1": 473}, "2C-005": {"0": 22.1, "1": 773}, "2C-006": {"0": 20.9, "1": 541}, "2C-007": {"0": 20.5, "1": 494}, "2C-008": {"0": 20, "1": 494}, "2C-009": {"0": 17.8}, "2C-201": {"0": 18.5}, "2C-210": {"0": 21, "1": 506}, "2D-001": {"0": 21.7}, "2D-002": {"0": 22.4}, "2D-003": {"0": 22.2, "1": 521}, "2D-004": {"0": 21.9, "1": 473}, "2D-005": {"0": 21}, "2D-006": {"0": 21.3, "1": 473}, "2D-007": {"0": 22.4}, "2D-008": {"0": 21.5}, "2D-009": {"0": 22.5, "1": 717}, "2D-010": {"0": 21.5, "1": 521}, "2D-011": {"0": 21.9, "1": 487}, "2D-012": {"0": 21.6, "1": 459}, "2D-013": {"0": 21.8, "1": 453}, "2D-014": {"0": 21.8, "1": 611}, "2D-204": {"0": 20.5, "1": 486}, "2D-205": {"0": 20.2}, "2D-210": {"0": 21, "1": 587}, "3A-001": {"0": 20.7}, "3A-002": {"0": 22.4}, "3A-003": {"0": 22}, "3A-004": {"0": 22.1}, "3A-005": {"0": 21.9}, "3A-006": {"0": 19.6}, "3A-007": {"0": 21.8}, "3A-009": {"0": 22.2}, "3A-010": {"0": 22.4}, "3A-012": {"0": 21.8}, "3A-014": {"0": 22.4, "1": 874}, "3A-201": {"0": 20.4}, "3A-203": {"0": 20.4}, "3B-001": {"0": 22, "1": 829}, "3B-002": {"0": 21.1}, "3B-003": {"0": 22.2}, "3B-004": {"0": 21.6}, "3B-005": {"0": 0}, "3B-007": {"0": 21.2}, "3B-008": {"0": 21.7}, "3B-010": {"0": 22.5}, "3B-011": {"0": 21.8}, "3B-015-Nord": {"0": 0}, "3B-015-Sud": {"0": 0}, "3B15": {"0": 21.2}, "3B16": {"0": 22.1}, "3B17": {"0": 21.3}, "3B18": {"0": 21.6}, "3B19": {"0": 21.5}, "3B-201": {"0": 20.1}, "3B-203": {"0": 20.6}, "3C-006": {"0": 18.1}, "3C-007": {"0": 22.2, "1": 666}, "3C-009": {"0": 22.3}, "3C-010": {"0": 22.3}, "3C-011": {"0": 22.2}, "3C-201": {"0": 18.5}, "3C-203": {"0": 20.3}, "3C-205": {"0": 19}, "3D-001": {"0": 22.1, "1": 612}, "3D-002": {"0": 21.8, "1": 532}, "3D-003": {"0": 22, "1": 540}, "3D-004": {"0": 21.5}, "3D-005": {"0": 22.2}, "3D-006": {"0": 21.8, "1": 470}, "3D-202": {"0": 20.9}, "3D-203": {"0": 20.3}, "4A-001": {"0": 22.2}, "4A-003": {"0": 22}, "4A-004": {"0": 22.5}, "4A-005": {"0": 21.8, "1": 435}, "4A-006": {"0": 21.5}, "4A-008": {"0": 21.6}, "4A-009": {"0": 22.1}, "4A-010": {"0": 22}, "4A-011": {"0": 21.9, "1": 453}, "4A-013": {"0": 20.2}, "4A-400": {"0": 21}, "4A-014": {"0": 21.8, "1": 555}, "4A-015": {"0": 21, "1": 513}, "4A-016": {"0": 20.7, "1": 491}, "4A-017": {"0": 21.9, "1": 459}, "4A-018": {"0": 21.2, "1": 524}, "4A-019": {"0": 21.4, "1": 488}, "4A-020": {"0": 22.1, "1": 981}, "4A-201": {"0": 20.8}, "4A-202": {"0": 20.5}, "4A-203": {"0": 21.2}, "4B-001": {"0": 21.8}, "4B-002": {"0": 21}, "4B-003": {"0": 22.2}, "4B-004": {"0": 22}, "4B-005": {"0": 21.4}, "4B-006": {"0": 21.9}, "4B-007": {"0": 22.4}, "4B-009": {"0": 22.9}, "4B-010": {"0": 22.1}, "4B-011": {"0": 22}, "4B-012": {"0": 21.8}, "4B-013": {"0": 22.5}, "4B-014": {"0": 22.3, "1": 629}, "4B-015": {"0": 22}, "4B-016": {"0": 22}, "4B-017": {"0": 22.6}, "4B-018": {"0": 21.9}, "4B-019": {"0": 20.9}, "4B-020": {"0": 21.9, "1": 981}, "4B-023": {"0": 21.5}, "4B-024": {"0": 22.2}, "4B-025": {"0": 22}, "4B-026": {"0": 21.7}, "4B-203": {"0": 21.3}, "4B-205": {"0": 20.5}, "4C-005": {"0": 22.2}, "4C-007": {"0": 21.4}, "4C-008": {"0": 0}, "4C-009": {"0": 21.7}, "4C-010": {"0": 22.5}, "4C-012": {"0": 22.3, "1": 599}, "4C-013": {"0": 21.4}, "4C-015": {"0": 22.2}, "4C-016": {"0": 22, "1": 552}, "4C-017": {"0": 21.4}, "4C-201": {"0": 22.2}, "4C-204": {"0": 22}, "4D-001": {"0": 22.1}, "4D-002": {"0": 22.3}, "4D-003": {"0": 21.6, "1": 449}, "4D-005": {"0": 22.5}, "4D-006": {"0": 21.7, "1": 482}, "4D-007": {"0": 22}, "4D-008": {"0": 23.2, "1": 651}, "4D-009": {"0": 21.8}, "4D-010": {"0": 22}, "4D-011": {"0": 22.5}, "4D-013": {"0": 22.8}, "4D-202": {"0": 20.6}, "4D-203": {"0": 20.5}, "4D-205": {"0": 20}, "5A-001": {"0": 22.3}, "5A-002": {"0": 22.3}, "5A-003": {"0": 21.3, "1": 486}, "5A-004": {"0": 21.6}, "5A-006": {"0": 21.3, "1": 458}, "5A-007": {"0": 21.6}, "5A-008": {"0": 22.3}, "5A-009": {"0": 22.2}, "5A-010": {"0": 0}, "5A-011": {"0": 22.3}, "5A-012": {"0": 21.9}, "5A-013": {"0": 22.2}, "5A-014": {"0": 21.8}, "5A-015": {"0": 21.8}, "5A-016": {"0": 22.1}, "5A-020": {"0": 22.4}, "5A-021": {"0": 22.1}, "5A-022": {"0": 21.9}, "5A-023": {"0": 22.2}, "5A-024": {"0": 21.6}, "5A-203": {"0": 21.6}, "5B-002": {"0": 0}, "5B-003": {"0": 22.5}, "5B-004": {"0": 21.8}, "5B-005": {"0": 21.5, "1": 553}, "5B-006": {"0": 22.4}, "5B-007": {"0": 21.5}, "5B-008": {"0": 22}, "5B-009": {"0": 22.5, "1": 517}, "5B-010": {"0": 22.7, "1": 666}, "5B-011": {"0": 21.9}, "5B-012": {"0": 21.6}, "5B-013": {"0": 21.8}, "5B-014": {"0": 22}, "5B-015": {"0": 21.9}, "5B-017": {"0": 21.2}, "5B-018": {"0": 21.5}, "5B-019": {"0": 21.8}, "5B-020": {"0": 22.1}, "5B-021": {"0": 21.9}, "5B-022": {"0": 22.6}, "5B-023": {"0": 21.9}, "5B-024": {"0": 21.9}, "5B-025": {"0": 21.4}, "5B-026": {"0": 21.8}, "5B-027": {"0": 21.7}, "5B-202": {"0": 21.5}, "5B-203": {"0": 0}, "5B-204": {"0": 17}, "5B-205": {"0": 17.6}, "5C-001": {"0": 21.8}, "5C-002": {"0": 21.7}, "5C-003": {"0": 21.8}, "5C-004": {"0": 23.8}, "5C-005": {"0": 16.5}, "5C-006": {"0": 21.8}, "5C-007": {"0": 22.9}, "5C-008": {"0": 21.8}, "5C-009": {"0": 23.3, "1": 739}, "5C-010": {"0": 22.2}, "5C-011": {"0": 21.5}, "5C-012": {"0": 22.6}, "5C-013": {"0": 22}, "5C-014": {"0": 26.4}, "5C-015": {"0": 22.5}, "5C-016": {"0": 21.6}, "5C-017": {"0": 23.6}, "5C-018": {"0": 22.3}, "5C-019": {"0": 22.6}, "5C-020": {"0": 21.6}, "5C-021": {"0": 22.4}, "5C-022": {"0": 22.3}, "5C-023": {"0": 21.8}, "5C-024": {"0": 22.3}, "5C-025": {"0": 21.8}, "5C-026": {"0": 22.4}, "5C-027": {"0": 22.5}, "5C-201": {"0": 19.4}, "5D-001": {"0": 21.1}, "5D-002": {"0": 21.9}, "5D-003": {"0": 20.6, "1": 446}, "5D-004": {"0": 20.2, "1": 434}, "5D-005": {"0": 21.7}, "5D-006": {"0": 23.5}, "5D-007": {"0": 21.9, "1": 264}, "5D-008": {"0": 21.6, "1": 504}, "5D-203": {"0": 19.5}, "5D-204": {"0": 19.7}, "5D-205": {"0": 18.9}, "6B-001": {"0": 16.1}}, "comment": "zone : temp\u00e9rature (\u00b0C), CO2 (ppm), occupation (0/1)", "meanTemperature": 2.2, "meanTamb": 21.5}
{"areas": {"0A-001": {"0": 19.8}, "0A-002": {"0": 19.6}, "0A-003": {"0": 20}, "0A-006": {"0": 18.1}, "0A-008": {"0": 19.5}, "0A-009": {"0": 17.1}, "0A-010": {"0": 19.8}, "0B-agora": {"0": 21.2}, "0B-001": {"0": 19.6}, "0B-002_T9": {"0": 20.8}, "0B-002_T10": {"0": 21}, "0B-003": {"0": 20.6}, "0B-004": {"0": 20.2}, "0B-005": {"0": 22}, "0B-006": {"0": 17.9}, "0B-007": {"0": 22.2, "1": 471}, "0B-008": {"0": 17.2}, "0B-009": {"0": 14.6}, "0B-010": {"0": 20.5}, "0B-011": {"0": 18.1}, "0B-012": {"0": 17.1}, "0B-013": {"0": 18}, "0B-014": {"0": 14.7}, "0B-015": {"0": 19, "1": 453}, "0B-203": {"0": 17.6}, "0B-401": {"0": 21.8}, "0B-406": {"0": 21}, "0D-Salle_Poly": {"0": 20.3}, "0D-001": {"0": 21}, "0D-003": {"0": 20.7, "1": 410}, "0D-004": {"0": 21, "1": 440}, "0D-007": {"0": 23.6, "1": 611}, "0D-009": {"0": 21.2}, "0D-012": {"0": 21.7}, "0D-021": {"0": 23.6}, "0D-022": {"0": 21.8}, "0D-023": {"0": 21.1}, "0D-025": {"0": 25.6}, "0D-105": {"0": 21.3}, "0D-200": {"0": 18.3}, "1A-002": {"0": 21.4, "1": 435}, "1A-003": {"0": 22}, "1A-006": {"0": 21.4}, "1A-007": {"0": 22.1}, "1A-008": {"0": 21.9}, "1A-009": {"0": 21.4}, "1A-202": {"0": 21.4}, "1B-001-AJ-AH": {"0": 22.4}, "1B-001-AL-AJ": {"0": 21.1, "1": 410}, "1B-001-AO-AL": {"0": 20.1}, "1B-002": {"0": 21.6, "1": 416}, "1B-003": {"0": 21.9, "1": 400}, "1B-004": {"0": 22, "1": 409}, "1B-005": {"0": 21.8, "1": 413}, "1B-006": {"0": 16.8}, "1B-007": {"0": 22, "1": 676}, "1B-008": {"0": 21.6}, "1B-009": {"0": 21.1}, "1B-010": {"0": 21.7}, "1B-011": {"0": 21.8}, "1B-012": {"0": 22.8, "1": 674}, "1B-013": {"0": 22.1}, "1B-014": {"0": 21.9}, "1B-015": {"0": 22.2}, "1B-016": {"0": 22.1}, "1B-017": {"0": 22.2}, "1B-018": {"0": 22.1}, "1B-202": {"0": 20.5}, "1C-001": {"0": 20.3, "1": 460}, "1C-002": {"0": 21.6, "1": 499}, "1C-003": {"0": 21.3}, "1C-004": {"0": 21.9}, "1C-007": {"0": 21.9}, "1C-008": {"0": 0}, "1C-009": {"0": 0}, "1C-010": {"0": 0}, "1C-011": {"0": 21.9}, "1C-012": {"0": 22.2}, "1C-013": {"0": 22.1}, "1C-201": {"0": 18.5}, "1D-001": {"0": 20.9}, "1D-002": {"0": 22.1}, "1D-004": {"0": 22.6}, "1D-005": {"0": 22.4}, "1D-006": {"0": 22.4}, "1D-007": {"0": 22.3}, "1D-008": {"0": 21.8}, "1D-009": {"0": 22}, "1D-010": {"0": 22.3}, "1D-011": {"0": 22.5}, "1D-012": {"0": 22.5}, "1D-013": {"0": 22.3}, "1D-014": {"0": 22.4}, "1D-015": {"0": 22.5}, "1D-016": {"0": 20.6}, "1D-017": {"0": 22.5}, "1D-018": {"0": 21.8}, "1D-020": {"0": 21.5}, "1D-021": {"0": 22.3}, "1D-022": {"0": 22.3}, "1D-202": {"0": 19.8}, "1D-204": {"0": 19.8, "1": 488}, "1D-205": {"0": 18.4}, "2A-002": {"0": 21.8}, "2A-003": {"0": 22.2, "1": 589}, "2A-004": {"0": 22.4, "1": 429}, "2A-005": {"0": 22.2, "1": 442}, "2A-006": {"0": 22.3, "1": 493}, "2A-007": {"0": 22.4, "1": 737}, "2A-201": {"0": 20.4}, "2A-204": {"0": 20.8}, "2B-001": {"0": 23.3, "1": 676}, "2B-002": {"0": 21.9, "1": 699}, "2B-003": {"0": 22.7}, "2B-005": {"0": 21.8}, "2B-006": {"0": 22}, "2B-007": {"0": 22.3}, "2B-008": {"0": 22.1}, "2B-009": {"0": 21.9, "1": 594}, "2B-010": {"0": 22.1}, "2B-012": {"0": 22.4}, "2B-013": {"0": 21.4}, "2B-202": {"0": 21.3}, "2B-210-203": {"0": 20.4}, "2C-001": {"0": 22.2}, "2C-002": {"0": 22.3, "1": 620}, "2C-003": {"0": 21.6, "1": 554}, "2C-004": {"0": 22, "1": 473}, "2C-005": {"0": 22.1, "1": 773}, "2C-006": {"0": 20.9, "1": 541}, "2C-007": {"0": 20.5, "1": 494}, "2C-008": {"0": 20, "1": 494}, "2C-009": {"0": 17.8}, "2C-201": {"0": 18.5}, "2C-210": {"0": 21, "1": 506}, "2D-001": {"0": 21.7}, "2D-002": {"0": 22.4}, "2D-003": {"0": 22.2, "1": 521}, "2D-004": {"0": 21.9, "1": 473}, "2D-005": {"0": 21}, "2D-006": {"0": 21.3, "1": 473}, "2D-007": {"0": 22.4}, "2D-008": {"0": 21.5}, "2D-009": {"0": 22.5, "1": 717}, "2D-010": {"0": 21.5, "1": 521}, "2D-011": {"0": 21.9, "1": 487}, "2D-012": {"0": 21.6, "1": 459}, "2D-013": {"0": 21.8, "1": 453}, "2D-014": {"0": 21.8, "1": 611}, "2D-204": {"0": 20.5, "1": 486}, "2D-205": {"0": 20.2}, "2D-210": {"0": 21, "1": 587}, "3A-001": {"0": 20.7}, "3A-002": {"0": 22.4}, "3A-003": {"0": 22}, "3A-004": {"0": 22.1}, "3A-005": {"0": 21.9}, "3A-006": {"0": 19.6}, "3A-007": {"0": 21.8}, "3A-009": {"0": 22.2}, "3A-010": {"0": 22.4}, "3A-012": {"0": 21.8}, "3A-014": {"0": 22.4, "1": 874}, "3A-201": {"0": 20.4}, "3A-203": {"0": 20.4}, "3B-001": {"0": 22, "1": 829}, "3B-002": {"0": 21.1}, "3B-003": {"0": 22.2}, "3B-004": {"0": 21.6}, "3B-005": {"0": 0}, "3B-007": {"0": 21.2}, "3B-008": {"0": 21.7}, "3B-010": {"0": 22.5}, "3B-011": {"0": 21.8}, "3B-015-Nord": {"0": 0}, "3B-015-Sud": {"0": 0}, "3B15": {"0": 21.2}, "3B16": {"0": 22.1}, "3B17": {"0": 21.3}, "3B18": {"0": 21.6}, "3B19": {"0": 21.5}, "3B-201": {"0": 20.1}, "3B-203": {"0": 20.6}, "3C-006": {"0": 18.1}, "3C-007": {"0": 22.2, "1": 666}, "3C-009": {"0": 22.3}, "3C-010": {"0": 22.3}, "3C-011": {"0": 22.2}, "3C-201": {"0": 18.5}, "3C-203": {"0": 20.3}, "3C-205": {"0": 19}, "3D-001": {"0": 22.1, "1": 612}, "3D-002": {"0": 21.8, "1": 532}, "3D-003": {"0": 22, "1": 540}, "3D-004": {"0": 21.5}, "3D-005": {"0": 22.2}, "3D-006": {"0": 21.8, "1": 470}, "3D-202": {"0": 20.9}, "3D-203": {"0": 20.3}, "4A-001": {"0": 22.2}, "4A-003": {"0": 22}, "4A-004": {"0": 22.5}, "4A-005": {"0": 21.8, "1": 435}, "4A-006": {"0": 21.5}, "4A-008": {"0": 21.6}, "4A-009": {"0": 22.1}, "4A-010": {"0": 22}, "4A-011": {"0": 21.9, "1": 453}, "4A-013": {"0": 20.2}, "4A-400": {"0": 21}, "4A-014": {"0": 21.8, "1": 555}, "4A-015": {"0": 21, "1": 513}, "4A-016": {"0": 20.7, "1": 491}, "4A-017": {"0": 21.9, "1": 459}, "4A-018": {"0": 21.2, "1": 524}, "4A-019": {"0": 21.4, "1": 488}, "4A-020": {"0": 22.1, "1": 981}, "4A-201": {"0": 20.8}, "4A-202": {"0": 20.5}, "4A-203": {"0": 21.2}, "4B-001": {"0": 21.8}, "4B-002": {"0": 21}, "4B-003": {"0": 22.2}, "4B-004": {"0": 22}, "4B-005": {"0": 21.4}, "4B-006": {"0": 21.9}, "4B-007": {"0": 22.4}, "4B-009": {"0": 22.9}, "4B-010": {"0": 22.1}, "4B-011": {"0": 22}, "4B-012": {"0": 21.8}, "4B-013": {"0": 22.5}, "4B-014": {"0": 22.3, "1": 629}, "4B-015": {"0": 22}, "4B-016": {"0": 22}, "4B-017": {"0": 22.6}, "4B-018": {"0": 21.9}, "4B-019": {"0": 20.9}, "4B-020": {"0": 21.9, "1": 981}, "4B-023": {"0": 21.5}, "4B-024": {"0": 22.2}, "4B-025": {"0": 22}, "4B-026": {"0": 21.7}, "4B-203": {"0": 21.3}, "4B-205": {"0": 20.5}, "4C-005": {"0": 22.2}, "4C-007": {"0": 21.4}, "4C-008": {"0": 0}, "4C-009": {"0": 21.7}, "4C-010": {"0": 22.5}, "4C-012": {"0": 22.3, "1": 599}, "4C-013": {"0": 21.4}, "4C-015": {"0": 22.2}, "4C-016": {"0": 22, "1": 552}, "4C-017": {"0": 21.4}, "4C-201": {"0": 22.2}, "4C-204": {"0": 22}, "4D-001": {"0": 22.1}, "4D-002": {"0": 22.3}, "4D-003": {"0": 21.6, "1": 449}, "4D-005": {"0": 22.5}, "4D-006": {"0": 21.7, "1": 482}, "4D-007": {"0": 22}, "4D-008": {"0": 23.2, "1": 651}, "4D-009": {"0": 21.8}, "4D-010": {"0": 22}, "4D-011": {"0": 22.5}, "4D-013": {"0": 22.8}, "4D-202": {"0": 20.6}, "4D-203": {"0": 20.5}, "4D-205": {"0": 20}, "5A-001": {"0": 22.3}, "5A-002": {"0": 22.3}, "5A-003": {"0": 21.3, "1": 486}, "5A-004": {"0": 21.6}, "5A-006": {"0": 21.3, "1": 458}, "5A-007": {"0": 21.6}, "5A-008": {"0": 22.3}, "5A-009": {"0": 22.2}, "5A-010": {"0": 0}, "5A-011": {"0": 22.3}, "5A-012": {"0": 21.9}, "5A-013": {"0": 22.2}, "5A-014": {"0": 21.8}, "5A-015": {"0": 21.8}, "5A-016": {"0": 22.1}, "5A-020": {"0": 22.4}, "5A-021": {"0": 22.1}, "5A-022": {"0": 21.9}, "5A-023": {"0": 22.2}, "5A-024": {"0": 21.6}, "5A-203": {"0": 21.6}, "5B-002": {"0": 0}, "5B-003": {"0": 22.5}, "5B-004": {"0": 21.8}, "5B-005": {"0": 21.5, "1": 553}, "5B-006": {"0": 22.4}, "5B-007": {"0": 21.5}, "5B-008": {"0": 22}, "5B-009": {"0": 22.5, "1": 517}, "5B-010": {"0": 22.7, "1": 666}, "5B-011": {"0": 21.9}, "5B-012": {"0": 21.6}, "5B-013": {"0": 21.8}, "5B-014": {"0": 22}, "5B-015": {"0": 21.9}, "5B-017": {"0": 21.2}, "5B-018": {"0": 21.5}, "5B-019": {"0": 21.8}, "5B-020": {"0": 22.1}, "5B-021": {"0": 21.9}, "5B-022": {"0": 22.6}, "5B-023": {"0": 21.9}, "5B-024": {"0": 21.9}, "5B-025": {"0": 21.4}, "5B-026": {"0": 21.8}, "5B-027": {"0": 21.7}, "5B-202": {"0": 21.5}, "5B-203": {"0": 0}, "5B-204": {"0": 17}, "5B-205": {"0": 17.6}, "5C-001": {"0": 21.8}, "5C-002": {"0": 21.7}, "5C-003": {"0": 21.8}, "5C-004": {"0": 23.8}, "5C-005": {"0": 16.5}, "5C-006": {"0": 21.8}, "5C-007": {"0": 22.9}, "5C-008": {"0": 21.8}, "5C-009": {"0": 23.3, "1": 739}, "5C-010": {"0": 22.2}, "5C-011": {"0": 21.5}, "5C-012": {"0": 22.6}, "5C-013": {"0": 22}, "5C-014": {"0": 26.4}, "5C-015": {"0": 22.5}, "5C-016": {"0": 21.6}, "5C-017": {"0": 23.6}, "5C-018": {"0": 22.3}, "5C-019": {"0": 22.6}, "5C-020": {"0": 21.6}, "5C-021": {"0": 22.4}, "5C-022": {"0": 22.3}, "5C-023": {"0": 21.8}, "5C-024": {"0": 22.3}, "5C-025": {"0": 21.8}, "5C-026": {"0": 22.4}, "5C-027": {"0": 22.5}, "5C-201": {"0": 19.4}, "5D-001": {"0": 21.1}, "5D-002": {"0": 21.9}, "5D-003": {"0": 20.6, "1": 446}, "5D-004": {"0": 20.2, "1": 434}, "5D-005": {"0": 21.7}, "5D-006": {"0": 23.5}, "5D-007": {"0": 21.9, "1": 264}, "5D-008": {"0": 21.6, "1": 504}, "5D-203": {"0": 19.5}, "5D-204": {"0": 19.7}, "5D-205": {"0": 18.9}, "6B-001": {"0": 16.1}}, "comment": "zone : temp\u00e9rature (\u00b0C), CO2 (ppm), occupation (0/1)", "meanTemperature": 2.2, "meanTamb": 21.5}
{"areas": {"0A-001": {"0": 19.8}, "0A-002": {"0": 19.6}, "0A-003": {"0": 20}, "0A-006": {"0": 18.1}, "0A-008": {"0": 19.5}, "0A-009": {"0": 17.1}, "0A-010": {"0": 19.8}, "0B-agora": {"0": 21.2}, "0B-001": {"0": 19.6}, "0B-002_T9": {"0": 20.8}, "0B-002_T10": {"0": 21}, "0B-003": {"0": 20.6}, "0B-004": {"0": 20.2}, "0B-005": {"0": 22}, "0B-006": {"0": 17.9}, "0B-007": {"0": 22.2, "1": 471}, "0B-008": {"0": 17.2}, "0B-009": {"0": 14.6}, "0B-010": {"0": 20.5}, "0B-011": {"0": 18.1}, "0B-012": {"0": 17.1}, "0B-013": {"0": 18}, "0B-014": {"0": 14.7}, "0B-015": {"0": 19, "1": 453}, "0B-203": {"0": 17.6}, "0B-401": {"0": 21.8}, "0B-406": {"0": 21}, "0D-Salle_Poly": {"0": 20.3}, "0D-001": {"0": 21}, "0D-003": {"0": 20.7, "1": 410}, "0D-004": {"0": 21, "1": 440}, "0D-007": {"0": 23.6, "1": 611}, "0D-009": {"0": 21.2}, "0D-012": {"0": 21.7}, "0D-021": {"0": 23.6}, "0D-022": {"0": 21.8}, "0D-023": {"0": 21.1}, "0D-025": {"0": 25.6}, "0D-105": {"0": 21.3}, "0D-200": {"0": 18.3}, "1A-002": {"0": 21.4, "1": 435}, "1A-003": {"0": 22}, "1A-006": {"0": 21.4}, "1A-007": {"0": 22.1}, "1A-008": {"0": 21.9}, "1A-009": {"0": 21.4}, "1A-202": {"0": 21.4}, "1B-001-AJ-AH": {"0": 22.4}, "1B-001-AL-AJ": {"0": 21.1, "1": 410}, "1B-001-AO-AL": {"0": 20.1}, "1B-002": {"0": 21.6, "1": 416}, "1B-003": {"0": 21.9, "1": 400}, "1B-004": {"0": 22, "1": 409}, "1B-005": {"0": 21.8, "1": 413}, "1B-006": {"0": 16.8}, "1B-007": {"0": 22, "1": 676}, "1B-008": {"0": 21.6}, "1B-009": {"0": 21.1}, "1B-010": {"0": 21.7}, "1B-011": {"0": 21.8}, "1B-012": {"0": 22.8, "1": 674}, "1B-013": {"0": 22.1}, "1B-014": {"0": 21.9}, "1B-015": {"0": 22.2}, "1B-016": {"0": 22.1}, "1B-017": {"0": 22.2}, "1B-018": {"0": 22.1}, "1B-202": {"0": 20.5}, "1C-001": {"0": 20.3, "1": 460}, "1C-002": {"0": 21.6, "1": 499}, "1C-003": {"0": 21.3}, "1C-004": {"0": 21.9}, "1C-007": {"0": 21.9}, "1C-008": {"0": 0}, "1C-009": {"0": 0}, "1C-010": {"0": 0}, "1C-011": {"0": 21.9}, "1C-012": {"0": 22.2}, "1C-013": {"0": 22.1}, "1C-201": {"0": 18.5}, "1D-001": {"0": 20.9}, "1D-002": {"0": 22.1}, "1D-004": {"0": 22.6}, "1D-005": {"0": 22.4}, "1D-006": {"0": 22.4}, "1D-007": {"0": 22.3}, "1D-008": {"0": 21.8}, "1D-009": {"0": 22}, "1D-010": {"0": 22.3}, "1D-011": {"0": 22.5}, "1D-012": {"0": 22.5}, "1D-013": {"0": 22.3}, "1D-014": {"0": 22.4}, "1D-015": {"0": 22.5}, "1D-016": {"0": 20.6}, "1D-017": {"0": 22.5}, "1D-018": {"0": 21.8}, "1D-020": {"0": 21.5}, "1D-021": {"0": 22.3}, "1D-022": {"0": 22.3}, "1D-202": {"0": 19.8}, "1D-204": {"0": 19.8, "1": 488}, "1D-205": {"0": 18.4}, "2A-002": {"0": 21.8}, "2A-003": {"0": 22.2, "1": 589}, "2A-004": {"0": 22.4, "1": 429}, "2A-005": {"0": 22.2, "1": 442}, "2A-006": {"0": 22.3, "1": 493}, "2A-007": {"0": 22.4, "1": 737}, "2A-201": {"0": 20.4}, "2A-204": {"0": 20.8}, "2B-001": {"0": 23.3, "1": 676}, "2B-002": {"0": 21.9, "1": 699}, "2B-003": {"0": 22.7}, "2B-005": {"0": 21.8}, "2B-006": {"0": 22}, "2B-007": {"0": 22.3}, "2B-008": {"0": 22.1}, "2B-009": {"0": 21.9, "1": 594}, "2B-010": {"0": 22.1}, "2B-012": {"0": 22.4}, "2B-013": {"0": 21.4}, "2B-202": {"0": 21.3}, "2B-210-203": {"0": 20.4}, "2C-001": {"0": 22.2}, "2C-002": {"0": 22.3, "1": 620}, "2C-003": {"0": 21.6, "1": 554}, "2C-004": {"0": 22, "1": 473}, "2C-005": {"0": 22.1, "1": 773}, "2C-006": {"0": 20.9, "1": 541}, "2C-007": {"0": 20.5, "1": 494}, "2C-008": {"0": 20, "1": 494}, "2C-009": {"0": 17.8}, "2C-201": {"0": 18.5}, "2C-210": {"0": 21, "1": 506}, "2D-001": {"0": 21.7}, "2D-002": {"0": 22.4}, "2D-003": {"0": 22.2, "1": 521}, "2D-004": {"0": 21.9, "1": 473}, "2D-005": {"0": 21}, "2D-006": {"0": 21.3, "1": 473}, "2D-007": {"0": 22.4}, "2D-008": {"0": 21.5}, "2D-009": {"0": 22.5, "1": 717}, "2D-010": {"0": 21.5, "1": 521}, "2D-011": {"0": 21.9, "1": 487}, "2D-012": {"0": 21.6, "1": 459}, "2D-013": {"0": 21.8, "1": 453}, "2D-014": {"0": 21.8, "1": 611}, "2D-204": {"0": 20.5, "1": 486}, "2D-205": {"0": 20.2}, "2D-210": {"0": 21, "1": 587}, "3A-001": {"0": 20.7}, "3A-002": {"0": 22.4}, "3A-003": {"0": 22}, "3A-004": {"0": 22.1}, "3A-005": {"0": 21.9}, "3A-006": {"0": 19.6}, "3A-007": {"0": 21.8}, "3A-009": {"0": 22.2}, "3A-010": {"0": 22.4}, "3A-012": {"0": 21.8}, "3A-014": {"0": 22.4, "1": 874}, "3A-201": {"0": 20.4}, "3A-203": {"0": 20.4}, "3B-001": {"0": 22, "1": 829}, "3B-002": {"0": 21.1}, "3B-003": {"0": 22.2}, "3B-004": {"0": 21.6}, "3B-005": {"0": 0}, "3B-007": {"0": 21.2}, "3B-008": {"0": 21.7}, "3B-010": {"0": 22.5}, "3B-011": {"0": 21.8}, "3B-015-Nord": {"0": 0}, "3B-015-Sud": {"0": 0}, "3B15": {"0": 21.2}, "3B16": {"0": 22.1}, "3B17": {"0": 21.3}, "3B18": {"0": 21.6}, "3B19": {"0": 21.5}, "3B-201": {"0": 20.1}, "3B-203": {"0": 20.6}, "3C-006": {"0": 18.1}, "3C-007": {"0": 22.2, "1": 666}, "3C-009": {"0": 22.3}, "3C-010": {"0": 22.3}, "3C-011": {"0": 22.2}, "3C-201": {"0": 18.5}, "3C-203": {"0": 20.3}, "3C-205": {"0": 19}, "3D-001": {"0": 22.1, "1": 612}, "3D-002": {"0": 21.8, "1": 532}, "3D-003": {"0": 22, "1": 540}, "3D-004": {"0": 21.5}, "3D-005": {"0": 22.2}, "3D-006": {"0": 21.8, "1": 470}, "3D-202": {"0": 20.9}, "3D-203": {"0": 20.3}, "4A-001": {"0": 22.2}, "4A-003": {"0": 22}, "4A-004": {"0": 22.5}, "4A-005": {"0": 21.8, "1": 435}, "4A-006": {"0": 21.5}, "4A-008": {"0": 21.6}, "4A-009": {"0": 22.1}, "4A-010": {"0": 22}, "4A-011": {"0": 21.9, "1": 453}, "4A-013": {"0": 20.2}, "4A-400": {"0": 21}, "4A-014": {"0": 21.8, "1": 555}, "4A-015": {"0": 21, "1": 513}, "4A-016": {"0": 20.7, "1": 491}, "4A-017": {"0": 21.9, "1": 459}, "4A-018": {"0": 21.2, "1": 524}, "4A-019": {"0": 21.4, "1": 488}, "4A-020": {"0": 22.1, "1": 981}, "4A-201": {"0": 20.8}, "4A-202": {"0": 20.5}, "4A-203": {"0": 21.2}, "4B-001": {"0": 21.8}, "4B-002": {"0": 21}, "4B-003": {"0": 22.2}, "4B-004": {"0": 22}, "4B-005": {"0": 21.4}, "4B-006": {"0": 21.9}, "4B-007": {"0": 22.4}, "4B-009": {"0": 22.9}, "4B-010": {"0": 22.1}, "4B-011": {"0": 22}, "4B-012": {"0": 21.8}, "4B-013": {"0": 22.5}, "4B-014": {"0": 22.3, "1": 629}, "4B-015": {"0": 22}, "4B-016": {"0": 22}, "4B-017": {"0": 22.6}, "4B-018": {"0": 21.9}, "4B-019": {"0": 20.9}, "4B-020": {"0": 21.9, "1": 981}, "4B-023": {"0": 21.5}, "4B-024": {"0": 22.2}, "4B-025": {"0": 22}, "4B-026": {"0": 21.7}, "4B-203": {"0": 21.3}, "4B-205": {"0": 20.5}, "4C-005": {"0": 22.2}, "4C-007": {"0": 21.4}, "4C-008": {"0": 0}, "4C-009": {"0": 21.7}, "4C-010": {"0": 22.5}, "4C-012": {"0": 22.3, "1": 599}, "4C-013": {"0": 21.4}, "4C-015": {"0": 22.2}, "4C-016": {"0": 22, "1": 552}, "4C-017": {"0": 21.4}, "4C-201": {"0": 22.2}, "4C-204": {"0": 22}, "4D-001": {"0": 22.1}, "4D-002": {"0": 22.3}, "4D-003": {"0": 21.6, "1": 449}, "4D-005": {"0": 22.5}, "4D-006": {"0": 21.7, "1": 482}, "4D-007": {"0": 22}, "4D-008": {"0": 23.2, "1": 651}, "4D-009": {"0": 21.8}, "4D-010": {"0": 22}, "4D-011": {"0": 22.5}, "4D-013": {"0": 22.8}, "4D-202": {"0": 20.6}, "4D-203": {"0": 20.5}, "4D-205": {"0": 20}, "5A-001": {"0": 22.3}, "5A-002": {"0": 22.3}, "5A-003": {"0": 21.3, "1": 486}, "5A-004": {"0": 21.6}, "5A-006": {"0": 21.3, "1": 458}, "5A-007": {"0": 21.6}, "5A-008": {"0": 22.3}, "5A-009": {"0": 22.2}, "5A-010": {"0": 0}, "5A-011": {"0": 22.3}, "5A-012": {"0": 21.9}, "5A-013": {"0": 22.2}, "5A-014": {"0": 21.8}, "5A-015": {"0": 21.8}, "5A-016": {"0": 22.1}, "5A-020": {"0": 22.4}, "5A-021": {"0": 22.1}, "5A-022": {"0": 21.9}, "5A-023": {"0": 22.2}, "5A-024": {"0": 21.6}, "5A-203": {"0": 21.6}, "5B-002": {"0": 0}, "5B-003": {"0": 22.5}, "5B-004": {"0": 21.8}, "5B-005": {"0": 21.5, "1": 553}, "5B-006": {"0": 22.4}, "5B-007": {"0": 21.5}, "5B-008": {"0": 22}, "5B-009": {"0": 22.5, "1": 517}, "5B-010": {"0": 22.7, "1": 666}, "5B-011": {"0": 21.9}, "5B-012": {"0": 21.6}, "5B-013": {"0": 21.8}, "5B-014": {"0": 22}, "5B-015": {"0": 21.9}, "5B-017": {"0": 21.2}, "5B-018": {"0": 21.5}, "5B-019": {"0": 21.8}, "5B-020": {"0": 22.1}, "5B-021": {"0": 21.9}, "5B-022": {"0": 22.6}, "5B-023": {"0": 21.9}, "5B-024": {"0": 21.9}, "5B-025": {"0": 21.4}, "5B-026": {"0": 21.8}, "5B-027": {"0": 21.7}, "5B-202": {"0": 21.5}, "5B-203": {"0": 0}, "5B-204": {"0": 17}, "5B-205": {"0": 17.6}, "5C-001": {"0": 21.8}, "5C-002": {"0": 21.7}, "5C-003": {"0": 21.8}, "5C-004": {"0": 23.8}, "5C-005": {"0": 16.5}, "5C-006": {"0": 21.8}, "5C-007": {"0": 22.9}, "5C-008": {"0": 21.8}, "5C-009": {"0": 23.3, "1": 739}, "5C-010": {"0": 22.2}, "5C-011": {"0": 21.5}, "5C-012": {"0": 22.6}, "5C-013": {"0": 22}, "5C-014": {"0": 26.4}, "5C-015": {"0": 22.5}, "5C-016": {"0": 21.6}, "5C-017": {"0": 23.6}, "5C-018": {"0": 22.3}, "5C-019": {"0": 22.6}, "5C-020": {"0": 21.6}, "5C-021": {"0": 22.4}, "5C-022": {"0": 22.3}, "5C-023": {"0": 21.8}, "5C-024": {"0": 22.3}, "5C-025": {"0": 21.8}, "5C-026": {"0": 22.4}, "5C-027": {"0": 22.5}, "5C-201": {"0": 19.4}, "5D-001": {"0": 21.1}, "5D-002": {"0": 21.9}, "5D-003": {"0": 20.6, "1": 446}, "5D-004": {"0": 20.2, "1": 434}, "5D-005": {"0": 21.7}, "5D-006": {"0": 23.5}, "5D-007": {"0": 21.9, "1": 264}, "5D-008": {"0": 21.6, "1": 504}, "5D-203": {"0": 19.5}, "5D-204": {"0": 19.7}, "5D-205": {"0": 18.9}, "6B-001": {"0": 16.1}}, "comment": "zone : temp\u00e9rature (\u00b0C), CO2 (ppm), occupation (0/1)", "meanTemperature": 2.2, "meanTamb": 21.5}
{"areas": {"0A-001": {"0": 19.8}, "0A-002": {"0": 19.6}, "0A-003": {"0": 20}, "0A-006": {"0": 18.1}, "0A-008": {"0": 19.5}, "0A-009": {"0": 17.1}, "0A-010": {"0": 19.8}, "0B-agora": {"0": 21.2}, "0B-001": {"0": 19.6}, "0B-002_T9": {"0": 20.8}, "0B-002_T10": {"0": 21}, "0B-003": {"0": 20.6}, "0B-004": {"0": 20.2}, "0B-005": {"0": 22}, "0B-006": {"0": 17.9}, "0B-007": {"0": 22.2, "1": 471}, "0B-008": {"0": 17.2}, "0B-009": {"0": 14.6}, "0B-010": {"0": 20.5}, "0B-011": {"0": 18.1}, "0B-012": {"0": 17.1}, "0B-013": {"0": 18}, "0B-014": {"0": 14.7}, "0B-015": {"0": 19, "1": 453}, "0B-203": {"0": 17.6}, "0B-401": {"0": 21.8}, "0B-406": {"0": 21}, "0D-Salle_Poly": {"0": 20.3}, "0D-001": {"0": 21}, "0D-003": {"0": 20.7, "1": 410}, "0D-004": {"0": 21, "1": 440}, "0D-007": {"0": 23.6, "1": 611}, "0D-009": {"0": 21.2}, "0D-012": {"0": 21.7}, "0D-021": {"0": 23.6}, "0D-022": {"0": 21.8}, "0D-023": {"0": 21.1}, "0D-025": {"0": 25.6}, "0D-105": {"0": 21.3}, "0D-200": {"0": 18.3}, "1A-002": {"0": 21.4, "1": 435}, "1A-003": {"0": 22}, "1A-006": {"0": 21.4}, "1A-007": {"0": 22.1}, "1A-008": {"0": 21.9}, "1A-009": {"0": 21.4}, "1A-202": {"0": 21.4}, "1B-001-AJ-AH": {"0": 22.4}, "1B-001-AL-AJ": {"0": 21.1, "1": 410}, "1B-001-AO-AL": {"0": 20.1}, "1B-002": {"0": 21.6, "1": 416}, "1B-003": {"0": 21.9, "1": 400}, "1B-004": {"0": 22, "1": 409}, "1B-005": {"0": 21.8, "1": 413}, "1B-006": {"0": 16.8}, "1B-007": {"0": 22, "1": 676}, "1B-008": {"0": 21.6}, "1B-009": {"0": 21.1}, "1B-010": {"0": 21.7}, "1B-011": {"0": 21.8}, "1B-012": {"0": 22.8, "1": 674}, "1B-013": {"0": 22.1}, "1B-014": {"0": 21.9}, "1B-015": {"0": 22.2}, "1B-016": {"0": 22.1}, "1B-017": {"0": 22.2}, "1B-018": {"0": 22.1}, "1B-202": {"0": 20.5}, "1C-001": {"0": 20.3, "1": 460}, "1C-002": {"0": 21.6, "1": 499}, "1C-003": {"0": 21.3}, "1C-004": {"0": 21.9}, "1C-007": {"0": 21.9}, "1C-008": {"0": 0}, "1C-009": {"0": 0}, "1C-010": {"0": 0}, "1C-011": {"0": 21.9}, "1C-012": {"0": 22.2}, "1C-013": {"0": 22.1}, "1C-201": {"0": 18.5}, "1D-001": {"0": 20.9}, "1D-002": {"0": 22.1}, "1D-004": {"0": 22.6}, "1D-005": {"0": 22.4}, "1D-006": {"0": 22.4}, "1D-007": {"0": 22.3}, "1D-008": {"0": 21.8}, "1D-009": {"0": 22}, "1D-010": {"0": 22.3}, "1D-011": {"0": 22.5}, "1D-012": {"0": 22.5}, "1D-013": {"0": 22.3}, "1D-014": {"0": 22.4}, "1D-015": {"0": 22.5}, "1D-016": {"0": 20.6}, "1D-017": {"0": 22.5}, "1D-018": {"0": 21.8}, "1D-020": {"0": 21.5}, "1D-021": {"0": 22.3}, "1D-022": {"0": 22.3}, "1D-202": {"0": 19.8}, "1D-204": {"0": 19.8, "1": 488}, "1D-205": {"0": 18.4}, "2A-002": {"0": 21.8}, "2A-003": {"0": 22.2, "1": 589}, "2A-004": {"0": 22.4, "1": 429}, "2A-005": {"0": 22.2, "1": 442}, "2A-006": {"0": 22.3, "1": 493}, "2A-007": {"0": 22.4, "1": 737}, "2A-201": {"0": 20.4}, "2A-204": {"0": 20.8}, "2B-001": {"0": 23.3, "1": 676}, "2B-002": {"0": 21.9, "1": 699}, "2B-003": {"0": 22.7}, "2B-005": {"0": 21.8}, "2B-006": {"0": 22}, "2B-007": {"0": 22.3}, "2B-008": {"0": 22.1}, "2B-009": {"0": 21.9, "1": 594}, "2B-010": {"0": 22.1}, "2B-012": {"0": 22.4}, "2B-013": {"0": 21.4}, "2B-202": {"0": 21.3}, "2B-210-203": {"0": 20.4}, "2C-001": {"0": 22.2}, "2C-002": {"0": 22.3, "1": 620}, "2C-003": {"0": 21.6, "1": 554}, "2C-004": {"0": 22, "1": 473}, "2C-005": {"0": 22.1, "1": 773}, "2C-006": {"0": 20.9, "1": 541}, "2C-007": {"0": 20.5, "1": 494}, "2C-008": {"0": 20, "1": 494}, "2C-009": {"0": 17.8}, "2C-201": {"0": 18.5}, "2C-210": {"0": 21, "1": 506}, "2D-001": {"0": 21.7}, "2D-002": {"0": 22.4}, "2D-003": {"0": 22.2, "1": 521}, "2D-004": {"0": 21.9, "1": 473}, "2D-005": {"0": 21}, "2D-006": {"0": 21.3, "1": 473}, "2D-007": {"0": 22.4}, "2D-008": {"0": 21.5}, "2D-009": {"0": 22.5, "1": 717}, "2D-010": {"0": 21.5, "1": 521}, "2D-011": {"0": 21.9, "1": 487}, "2D-012": {"0": 21.6, "1": 459}, "2D-013": {"0": 21.8, "1": 453}, "2D-014": {"0": 21.8, "1": 611}, "2D-204": {"0": 20.5, "1": 486}, "2D-205": {"0": 20.2}, "2D-210": {"0": 21, "1": 587}, "3A-001": {"0": 20.7}, "3A-002": {"0": 22.4}, "3A-003": {"0": 22}, "3A-004": {"0": 22.1}, "3A-005": {"0": 21.9}, "3A-006": {"0": 19.6}, "3A-007": {"0": 21.8}, "3A-009": {"0": 22.2}, "3A-010": {"0": 22.4}, "3A-012": {"0": 21.8}, "3A-014": {"0": 22.4, "1": 874}, "3A-201": {"0": 20.4}, "3A-203": {"0": 20.4}, "3B-001": {"0": 22, "1": 829}, "3B-002": {"0": 21.1}, "3B-003": {"0": 22.2}, "3B-004": {"0": 21.6}, "3B-005": {"0": 0}, "3B-007": {"0": 21.2}, "3B-008": {"0": 21.7}, "3B-010": {"0": 22.5}, "3B-011": {"0": 21.8}, "3B-015-Nord": {"0": 0}, "3B-015-Sud": {"0": 0}, "3B15": {"0": 21.2}, "3B16": {"0": 22.1}, "3B17": {"0": 21.3}, "3B18": {"0": 21.6}, "3B19": {"0": 21.5}, "3B-201": {"0": 20.1}, "3B-203": {"0": 20.6}, "3C-006": {"0": 18.1}, "3C-007": {"0": 22.2, "1": 666}, "3C-009": {"0": 22.3}, "3C-010": {"0": 22.3}, "3C-011": {"0": 22.2}, "3C-201": {"0": 18.5}, "3C-203": {"0": 20.3}, "3C-205": {"0": 19}, "3D-001": {"0": 22.1, "1": 612}, "3D-002": {"0": 21.8, "1": 532}, "3D-003": {"0": 22, "1": 540}, "3D-004": {"0": 21.5}, "3D-005": {"0": 22.2}, "3D-006": {"0": 21.8, "1": 470}, "3D-202": {"0": 20.9}, "3D-203": {"0": 20.3}, "4A-001": {"0": 22.2}, "4A-003": {"0": 22}, "4A-004": {"0": 22.5}, "4A-005": {"0": 21.8, "1": 435}, "4A-006": {"0": 21.5}, "4A-008": {"0": 21.6}, "4A-009": {"0": 22.1}, "4A-010": {"0": 22}, "4A-011": {"0": 21.9, "1": 453}, "4A-013": {"0": 20.2}, "4A-400": {"0": 21}, "4A-014": {"0": 21.8, "1": 555}, "4A-015": {"0": 21, "1": 513}, "4A-016": {"0": 20.7, "1": 491}, "4A-017": {"0": 21.9, "1": 459}, "4A-018": {"0": 21.2, "1": 524}, "4A-019": {"0": 21.4, "1": 488}, "4A-020": {"0": 22.1, "1": 981}, "4A-201": {"0": 20.8}, "4A-202": {"0": 20.5}, "4A-203": {"0": 21.2}, "4B-001": {"0": 21.8}, "4B-002": {"0": 21}, "4B-003": {"0": 22.2}, "4B-004": {"0": 22}, "4B-005": {"0": 21.4}, "4B-006": {"0": 21.9}, "4B-007": {"0": 22.4}, "4B-009": {"0": 22.9}, "4B-010": {"0": 22.1}, "4B-011": {"0": 22}, "4B-012": {"0": 21.8}, "4B-013": {"0": 22.5}, "4B-014": {"0": 22.3, "1": 629}, "4B-015": {"0": 22}, "4B-016": {"0": 22}, "4B-017": {"0": 22.6}, "4B-018": {"0": 21.9}, "4B-019": {"0": 20.9}, "4B-020": {"0": 21.9, "1": 981}, "4B-023": {"0": 21.5}, "4B-024": {"0": 22.2}, "4B-025": {"0": 22}, "4B-026": {"0": 21.7}, "4B-203": {"0": 21.3}, "4B-205": {"0": 20.5}, "4C-005": {"0": 22.2}, "4C-007": {"0": 21.4}, "4C-008": {"0": 0}, "4C-009": {"0": 21.7}, "4C-010": {"0": 22.5}, "4C-012": {"0": 22.3, "1": 599}, "4C-013": {"0": 21.4}, "4C-015": {"0": 22.2}, "4C-016": {"0": 22, "1": 552}, "4C-017": {"0": 21.4}, "4C-201": {"0": 22.2}, "4C-204": {"0": 22}, "4D-001": {"0": 22.1}, "4D-002": {"0": 22.3}, "4D-003": {"0": 21.6, "1": 449}, "4D-005": {"0": 22.5}, "4D-006": {"0": 21.7, "1": 482}, "4D-007": {"0": 22}, "4D-008": {"0": 23.2, "1": 651}, "4D-009": {"0": 21.8}, "4D-010": {"0": 22}, "4D-011": {"0": 22.5}, "4D-013": {"0": 22.8}, "4D-202": {"0": 20.6}, "4D-203": {"0": 20.5}, "4D-205": {"0": 20}, "5A-001": {"0": 22.3}, "5A-002": {"0": 22.3}, "5A-003": {"0": 21.3, "1": 486}, "5A-004": {"0": 21.6}, "5A-006": {"0": 21.3, "1": 458}, "5A-007": {"0": 21.6}, "5A-008": {"0": 22.3}, "5A-009": {"0": 22.2}, "5A-010": {"0": 0}, "5A-011": {"0": 22.3}, "5A-012": {"0": 21.9}, "5A-013": {"0": 22.2}, "5A-014": {"0": 21.8}, "5A-015": {"0": 21.8}, "5A-016": {"0": 22.1}, "5A-020": {"0": 22.4}, "5A-021": {"0": 22.1}, "5A-022": {"0": 21.9}, "5A-023": {"0": 22.2}, "5A-024": {"0": 21.6}, "5A-203": {"0": 21.6}, "5B-002": {"0": 0}, "5B-003": {"0": 22.5}, "5B-004": {"0": 21.8}, "5B-005": {"0": 21.5, "1": 553}, "5B-006": {"0": 22.4}, "5B-007": {"0": 21.5}, "5B-008": {"0": 22}, "5B-009": {"0": 22.5, "1": 517}, "5B-010": {"0": 22.7, "1": 666}, "5B-011": {"0": 21.9}, "5B-012": {"0": 21.6}, "5B-013": {"0": 21.8}, "5B-014": {"0": 22}, "5B-015": {"0": 21.9}, "5B-017": {"0": 21.2}, "5B-018": {"0": 21.5}, "5B-019": {"0": 21.8}, "5B-020": {"0": 22.1}, "5B-021": {"0": 21.9}, "5B-022": {"0": 22.6}, "5B-023": {"0": 21.9}, "5B-024": {"0": 21.9}, "5B-025": {"0": 21.4}, "5B-026": {"0": 21.8}, "5B-027": {"0": 21.7}, "5B-202": {"0": 21.5}, "5B-203": {"0": 0}, "5B-204": {"0": 17}, "5B-205": {"0": 17.6}, "5C-001": {"0": 21.8}, "5C-002": {"0": 21.7}, "5C-003": {"0": 21.8}, "5C-004": {"0": 23.8}, "5C-005": {"0": 16.5}, "5C-006": {"0": 21.8}, "5C-007": {"0": 22.9}, "5C-008": {"0": 21.8}, "5C-009": {"0": 23.3, "1": 739}, "5C-010": {"0": 22.2}, "5C-011": {"0": 21.5}, "5C-012": {"0": 22.6}, "5C-013": {"0": 22}, "5C-014": {"0": 26.4}, "5C-015": {"0": 22.5}, "5C-016": {"0": 21.6}, "5C-017": {"0": 23.6}, "5C-018": {"0": 22.3}, "5C-019": {"0": 22.6}, "5C-020": {"0": 21.6}, "5C-021": {"0": 22.4}, "5C-022": {"0": 22.3}, "5C-023": {"0": 21.8}, "5C-024": {"0": 22.3}, "5C-025": {"0": 21.8}, "5C-026": {"0": 22.4}, "5C-027": {"0": 22.5}, "5C-201": {"0": 19.4}, "5D-001": {"0": 21.1}, "5D-002": {"0": 21.9}, "5D-003": {"0": 20.6, "1": 446}, "5D-004": {"0": 20.2, "1": 434}, "5D-005": {"0": 21.7}, "5D-006": {"0": 23.5}, "5D-007": {"0": 21.9, "1": 264}, "5D-008": {"0": 21.6, "1": 504}, "5D-203": {"0": 19.5}, "5D-204": {"0": 19.7}, "5D-205": {"0": 18.9}, "6B-001": {"0": 16.1}}, "comment": "zone : temp\u00e9rature (\u00b0C), CO2 (ppm), occupation (0/1)", "meanTemperature": 2.2, "meanTamb": 21.5}
{"areas": {"0A-001": {"0": 19.8}, "0A-002": {"0": 19.6}, "0A-003": {"0": 20}, "0A-006": {"0": 18.1}, "0A-008": {"0": 19.5}, "0A-009": {"0": 17.1}, "0A-010": {"0": 19.8}, "0B-agora": {"0": 21.2}, "0B-001": {"0": 19.6}, "0B-002_T9": {"0": 20.8}, "0B-002_T10": {"0": 21}, "0B-003": {"0": 20.6}, "0B-004": {"0": 20.2}, "0B-005": {"0": 22}, "0B-006": {"0": 17.9}, "0B-007": {"0": 22.2, "1": 471}, "0B-008": {"0": 17.2}, "0B-009": {"0": 14.6}, "0B-010": {"0": 20.5}, "0B-011": {"0": 18.1}, "0B-012": {"0": 17.1}, "0B-013": {"0": 18}, "0B-014": {"0": 14.7}, "0B-015": {"0": 19, "1": 453}, "0B-203": {"0": 17.6}, "0B-401": {"0": 21.8}, "0B-406": {"0": 21}, "0D-Salle_Poly": {"0": 20.3}, "0D-001": {"0": 21}, "0D-003": {"0": 20.7, "1": 410}, "0D-004": {"0": 21, "1": 440}, "0D-007": {"0": 23.6, "1": 611}, "0D-009": {"0": 21.2}, "0D-012": {"0": 21.7}, "0D-021": {"0": 23.6}, "0D-022": {"0": 21.8}, "0D-023": {"0": 21.1}, "0D-025": {"0": 25.6}, "0D-105": {"0": 21.3}, "0D-200": {"0": 18.3}, "1A-002": {"0": 21.4, "1": 435}, "1A-003": {"0": 22}, "1A-006": {"0": 21.4}, "1A-007": {"0": 22.1}, "1A-008": {"0": 21.9}, "1A-009": {"0": 21.4}, "1A-202": {"0": 21.4}, "1B-001-AJ-AH": {"0": 22.4}, "1B-001-AL-AJ": {"0": 21.1, "1": 410}, "1B-001-AO-AL": {"0": 20.1}, "1B-002": {"0": 21.6, "1": 416}, "1B-003": {"0": 21.9, "1": 400}, "1B-004": {"0": 22, "1": 409}, "1B-005": {"0": 21.8, "1": 413}, "1B-006": {"0": 16.8}, "1B-007": {"0": 22, "1": 676}, "1B-008": {"0": 21.6}, "1B-009": {"0": 21.1}, "1B-010": {"0": 21.7}, "1B-011": {"0": 21.8}, "1B-012": {"0": 22.8, "1": 674}, "1B-013": {"0": 22.1}, "1B-014": {"0": 21.9}, "1B-015": {"0": 22.2}, "1B-016": {"0": 22.1}, "1B-017": {"0": 22.2}, "1B-018": {"0": 22.1}, "1B-202": {"0": 20.5}, "1C-001": {"0": 20.3, "1": 460}, "1C-002": {"0": 21.6, "1": 499}, "1C-003": {"0": 21.3}, "1C-004": {"0": 21.9}, "1C-007": {"0": 21.9}, "1C-008": {"0": 0}, "1C-009": {"0": 0}, "1C-010": {"0": 0}, "1C-011": {"0": 21.9}, "1C-012": {"0": 22.2}, "1C-013": {"0": 22.1}, "1C-201": {"0": 18.5}, "1D-001": {"0": 20.9}, "1D-002": {"0": 22.1}, "1D-004": {"0": 22.6}, "1D-005": {"0": 22.4}, "1D-006": {"0": 22.4}, "1D-007": {"0": 22.3}, "1D-008": {"0": 21.8}, "1D-009": {"0": 22}, "1D-010": {"0": 22.3}, "1D-011": {"0": 22.5}, "1D-012": {"0": 22.5}, "1D-013": {"0": 22.3}, "1D-014": {"0": 22.4}, "1D-015": {"0": 22.5}, "1D-016": {"0": 20.6}, "1D-017": {"0": 22.5}, "1D-018": {"0": 21.8}, "1D-020": {"0": 21.5}, "1D-021": {"0": 22.3}, "1D-022": {"0": 22.3}, "1D-202": {"0": 19.8}, "1D-204": {"0": 19.8, "1": 488}, "1D-205": {"0": 18.4}, "2A-002": {"0": 21.8}, "2A-003": {"0": 22.2, "1": 589}, "2A-004": {"0": 22.4, "1": 429}, "2A-005": {"0": 22.2, "1": 442}, "2A-006": {"0": 22.3, "1": 493}, "2A-007": {"0": 22.4, "1": 737}, "2A-201": {"0": 20.4}, "2A-204": {"0": 20.8}, "2B-001": {"0": 23.3, "1": 676}, "2B-002": {"0": 21.9, "1": 699}, "2B-003": {"0": 22.7}, "2B-005": {"0": 21.8}, "2B-006": {"0": 22}, "2B-007": {"0": 22.3}, "2B-008": {"0": 22.1}, "2B-009": {"0": 21.9, "1": 594}, "2B-010": {"0": 22.1}, "2B-012": {"0": 22.4}, "2B-013": {"0": 21.4}, "2B-202": {"0": 21.3}, "2B-210-203": {"0": 20.4}, "2C-001": {"0": 22.2}, "2C-002": {"0": 22.3, "1": 620}, "2C-003": {"0": 21.6, "1": 554}, "2C-004": {"0": 22, "1": 473}, "2C-005": {"0": 22.1, "1": 773}, "2C-006": {"0": 20.9, "1": 541}, "2C-007": {"0": 20.5, "1": 494}, "2C-008": {"0": 20, "1": 494}, "2C-009": {"0": 17.8}, "2C-201": {"0": 18.5}, "2C-210": {"0": 21, "1": 506}, "2D-001": {"0": 21.7}, "2D-002": {"0": 22.4}, "2D-003": {"0": 22.2, "1": 521}, "2D-004": {"0": 21.9, "1": 473}, "2D-005": {"0": 21}, "2D-006": {"0": 21.3, "1": 473}, "2D-007": {"0": 22.4}, "2D-008": {"0": 21.5}, "2D-009": {"0": 22.5, "1": 717}, "2D-010": {"0": 21.5, "1": 521}, "2D-011": {"0": 21.9, "1": 487}, "2D-012": {"0": 21.6, "1": 459}, "2D-013": {"0": 21.8, "1": 453}, "2D-014": {"0": 21.8, "1": 611}, "2D-204": {"0": 20.5, "1": 486}, "2D-205": {"0": 20.2}, "2D-210": {"0": 21, "1": 587}, "3A-001": {"0": 20.7}, "3A-002": {"0": 22.4}, "3A-003": {"0": 22}, "3A-004": {"0": 22.1}, "3A-005": {"0": 21.9}, "3A-006": {"0": 19.6}, "3A-007": {"0": 21.8}, "3A-009": {"0": 22.2}, "3A-010": {"0": 22.4}, "3A-012": {"0": 21.8}, "3A-014": {"0": 22.4, "1": 874}, "3A-201": {"0": 20.4}, "3A-203": {"0": 20.4}, "3B-001": {"0": 22, "1": 829}, "3B-002": {"0": 21.1}, "3B-003": {"0": 22.2}, "3B-004": {"0": 21.6}, "3B-005": {"0": 0}, "3B-007": {"0": 21.2}, "3B-008": {"0": 21.7}, "3B-010": {"0": 22.5}, "3B-011": {"0": 21.8}, "3B-015-Nord": {"0": 0}, "3B-015-Sud": {"0": 0}, "3B15": {"0": 21.2}, "3B16": {"0": 22.1}, "3B17": {"0": 21.3}, "3B18": {"0": 21.6}, "3B19": {"0": 21.5}, "3B-201": {"0": 20.1}, "3B-203": {"0": 20.6}, "3C-006": {"0": 18.1}, "3C-007": {"0": 22.2, "1": 666}, "3C-009": {"0": 22.3}, "3C-010": {"0": 22.3}, "3C-011": {"0": 22.2}, "3C-201": {"0": 18.5}, "3C-203": {"0": 20.3}, "3C-205": {"0": 19}, "3D-001": {"0": 22.1, "1": 612}, "3D-002": {"0": 21.8, "1": 532}, "3D-003": {"0": 22, "1": 540}, "3D-004": {"0": 21.5}, "3D-005": {"0": 22.2}, "3D-006": {"0": 21.8, "1": 470}, "3D-202": {"0": 20.9}, "3D-203": {"0": 20.3}, "4A-001": {"0": 22.2}, "4A-003": {"0": 22}, "4A-004": {"0": 22.5}, "4A-005": {"0": 21.8, "1": 435}, "4A-006": {"0": 21.5}, "4A-008": {"0": 21.6}, "4A-009": {"0": 22.1}, "4A-010": {"0": 22}, "4A-011": {"0": 21.9, "1": 453}, "4A-013": {"0": 20.2}, "4A-400": {"0": 21}, "4A-014": {"0": 21.8, "1": 555}, "4A-015": {"0": 21, "1": 513}, "4A-016": {"0": 20.7, "1": 491}, "4A-017": {"0": 21.9, "1": 459}, "4A-018": {"0": 21.2, "1": 524}, "4A-019": {"0": 21.4, "1": 488}, "4A-020": {"0": 22.1, "1": 981}, "4A-201": {"0": 20.8}, "4A-202": {"0": 20.5}, "4A-203": {"0": 21.2}, "4B-001": {"0": 21.8}, "4B-002": {"0": 21}, "4B-003": {"0": 22.2}, "4B-004": {"0": 22}, "4B-005": {"0": 21.4}, "4B-006": {"0": 21.9}, "4B-007": {"0": 22.4}, "4B-009": {"0": 22.9}, "4B-010": {"0": 22.1}, "4B-011": {"0": 22}, "4B-012": {"0": 21.8}, "4B-013": {"0": 22.5}, "4B-014": {"0": 22.3, "1": 629}, "4B-015": {"0": 22}, "4B-016": {"0": 22}, "4B-017": {"0": 22.6}, "4B-018": {"0": 21.9}, "4B-019": {"0": 20.9}, "4B-020": {"0": 21.9, "1": 981}, "4B-023": {"0": 21.5}, "4B-024": {"0": 22.2}, "4B-025": {"0": 22}, "4B-026": {"0": 21.7}, "4B-203": {"0": 21.3}, "4B-205": {"0": 20.5}, "4C-005": {"0": 22.2}, "4C-007": {"0": 21.4}, "4C-008": {"0": 0}, "4C-009": {"0": 21.7}, "4C-010": {"0": 22.5}, "4C-012": {"0": 22.3, "1": 599}, "4C-013": {"0": 21.4}, "4C-015": {"0": 22.2}, "4C-016": {"0": 22, "1": 552}, "4C-017": {"0": 21.4}, "4C-201": {"0": 22.2}, "4C-204": {"0": 22}, "4D-001": {"0": 22.1}, "4D-002": {"0": 22.3}, "4D-003": {"0": 21.6, "1": 449}, "4D-005": {"0": 22.5}, "4D-006": {"0": 21.7, "1": 482}, "4D-007": {"0": 22}, "4D-008": {"0": 23.2, "1": 651}, "4D-009": {"0": 21.8}, "4D-010": {"0": 22}, "4D-011": {"0": 22.5}, "4D-013": {"0": 22.8}, "4D-202": {"0": 20.6}, "4D-203": {"0": 20.5}, "4D-205": {"0": 20}, "5A-001": {"0": 22.3}, "5A-002": {"0": 22.3}, "5A-003": {"0": 21.3, "1": 486}, "5A-004": {"0": 21.6}, "5A-006": {"0": 21.3, "1": 458}, "5A-007": {"0": 21.6}, "5A-008": {"0": 22.3}, "5A-009": {"0": 22.2}, "5A-010": {"0": 0}, "5A-011": {"0": 22.3}, "5A-012": {"0": 21.9}, "5A-013": {"0": 22.2}, "5A-014": {"0": 21.8}, "5A-015": {"0": 21.8}, "5A-016": {"0": 22.1}, "5A-020": {"0": 22.4}, "5A-021": {"0": 22.1}, "5A-022": {"0": 21.9}, "5A-023": {"0": 22.2}, "5A-024": {"0": 21.6}, "5A-203": {"0": 21.6}, "5B-002": {"0": 0}, "5B-003": {"0": 22.5}, "5B-004": {"0": 21.8}, "5B-005": {"0": 21.5, "1": 553}, "5B-006": {"0": 22.4}, "5B-007": {"0": 21.5}, "5B-008": {"0": 22}, "5B-009": {"0": 22.5, "1": 517}, "5B-010": {"0": 22.7, "1": 666}, "5B-011": {"0": 21.9}, "5B-012": {"0": 21.6}, "5B-013": {"0": 21.8}, "5B-014": {"0": 22}, "5B-015": {"0": 21.9}, "5B-017": {"0": 21.2}, "5B-018": {"0": 21.5}, "5B-019": {"0": 21.8}, "5B-020": {"0": 22.1}, "5B-021": {"0": 21.9}, "5B-022": {"0": 22.6}, "5B-023": {"0": 21.9}, "5B-024": {"0": 21.9}, "5B-025": {"0": 21.4}, "5B-026": {"0": 21.8}, "5B-027": {"0": 21.7}, "5B-202": {"0": 21.5}, "5B-203": {"0": 0}, "5B-204": {"0": 17}, "5B-205": {"0": 17.6}, "5C-001": {"0": 21.8}, "5C-002": {"0": 21.7}, "5C-003": {"0": 21.8}, "5C-004": {"0": 23.8}, "5C-005": {"0": 16.5}, "5C-006": {"0": 21.8}, "5C-007": {"0": 22.9}, "5C-008": {"0": 21.8}, "5C-009": {"0": 23.3, "1": 739}, "5C-010": {"0": 22.2}, "5C-011": {"0": 21.5}, "5C-012": {"0": 22.6}, "5C-013": {"0": 22}, "5C-014": {"0": 26.4}, "5C-015": {"0": 22.5}, "5C-016": {"0": 21.6}, "5C-017": {"0": 23.6}, "5C-018": {"0": 22.3}, "5C-019": {"0": 22.6}, "5C-020": {"0": 21.6}, "5C-021": {"0": 22.4}, "5C-022": {"0": 22.3}, "5C-023": {"0": 21.8}, "5C-024": {"0": 22.3}, "5C-025": {"0": 21.8}, "5C-026": {"0": 22.4}, "5C-027": {"0": 22.5}, "5C-201": {"0": 19.4}, "5D-001": {"0": 21.1}, "5D-002": {"0": 21.9}, "5D-003": {"0": 20.6, "1": 446}, "5D-004": {"0": 20.2, "1": 434}, "5D-005": {"0": 21.7}, "5D-006": {"0": 23.5}, "5D-007": {"0": 21.9, "1": 264}, "5D-008": {"0": 21.6, "1": 504}, "5D-203": {"0": 19.5}, "5D-204": {"0": 19.7}, "5D-205": {"0": 18.9}, "6B-001": {"0": 16.1}}, "comment": "zone : temp\u00e9rature (\u00b0C), CO2 (ppm), occupation (0/1)", "meanTemperature": 2.2, "meanTamb": 21.5}
{"areas": {"0A-001": {"0": 19.8}, "0A-002": {"0": 19.6}, "0A-003": {"0": 20}, "0A-006": {"0": 18.1}, "0A-008": {"0": 19.5}, "0A-009": {"0": 17.1}, "0A-010": {"0": 19.8}, "0B-agora": {"0": 21.2}, "0B-001": {"0": 19.6}, "0B-002_T9": {"0": 20.8}, "0B-002_T10": {"0": 21}, "0B-003": {"0": 20.6}, "0B-004": {"0": 20.2}, "0B-005": {"0": 22}, "0B-006": {"0": 17.9}, "0B-007": {"0": 22.2, "1": 471}, "0B-008": {"0": 17.2}, "0B-009": {"0": 14.6}, "0B-010": {"0": 20.5}, "0B-011": {"0": 18.1}, "0B-012": {"0": 17.1}, "0B-013": {"0": 18}, "0B-014": {"0": 14.7}, "0B-015": {"0": 19, "1": 453}, "0B-203": {"0": 17.6}, "0B-401": {"0": 21.8}, "0B-406": {"0": 21}, "0D-Salle_Poly": {"0": 20.3}, "0D-001": {"0": 21}, "0D-003": {"0": 20.7, "1": 410}, "0D-004": {"0": 21, "1": 440}, "0D-007": {"0": 23.6, "1": 611}, "0D-009": {"0": 21.2}, "0D-012": {"0": 21.7}, "0D-021": {"0": 23.6}, "0D-022": {"0": 21.8}, "0D-023": {"0": 21.1}, "0D-025": {"0": 25.6}, "0D-105": {"0": 21.3}, "0D-200": {"0": 18.3}, "1A-002": {"0": 21.4, "1": 435}, "1A-003": {"0": 22}, "1A-006": {"0": 21.4}, "1A-007": {"0": 22.1}, "1A-008": {"0": 21.9}, "1A-009": {"0": 21.4}, "1A-202": {"0": 21.4}, "1B-001-AJ-AH": {"0": 22.4}, "1B-001-AL-AJ": {"0": 21.1, "1": 410}, "1B-001-AO-AL": {"0": 20.1}, "1B-002": {"0": 21.6, "1": 416}, "1B-003": {"0": 21.9, "1": 400}, "1B-004": {"0": 22, "1": 409}, "1B-005": {"0": 21.8, "1": 413}, "1B-006": {"0": 16.8}, "1B-007": {"0": 22, "1": 676}, "1B-008": {"0": 21.6}, "1B-009": {"0": 21.1}, "1B-010": {"0": 21.7}, "1B-011": {"0": 21.8}, "1B-012": {"0": 22.8, "1": 674}, "1B-013": {"0": 22.1}, "1B-014": {"0": 21.9}, "1B-015": {"0": 22.2}, "1B-016": {"0": 22.1}, "1B-017": {"0": 22.2}, "1B-018": {"0": 22.1}, "1B-202": {"0": 20.5}, "1C-001": {"0": 20.3, "1": 460}, "1C-002": {"0": 21.6, "1": 499}, "1C-003": {"0": 21.3}, "1C-004": {"0": 21.9}, "1C-007": {"0": 21.9}, "1C-008": {"0": 0}, "1C-009": {"0": 0}, "1C-010": {"0": 0}, "1C-011": {"0": 21.9}, "1C-012": {"0": 22.2}, "1C-013": {"0": 22.1}, "1C-201": {"0": 18.5}, "1D-001": {"0": 20.9}, "1D-002": {"0": 22.1}, "1D-004": {"0": 22.6}, "1D-005": {"0": 22.4}, "1D-006": {"0": 22.4}, "1D-007": {"0": 22.3}, "1D-008": {"0": 21.8}, "1D-009": {"0": 22}, "1D-010": {"0": 22.3}, "1D-011": {"0": 22.5}, "1D-012": {"0": 22.5}, "1D-013": {"0": 22.3}, "1D-014": {"0": 22.4}, "1D-015": {"0": 22.5}, "1D-016": {"0": 20.6}, "1D-017": {"0": 22.5}, "1D-018": {"0": 21.8}, "1D-020": {"0": 21.5}, "1D-021": {"0": 22.3}, "1D-022": {"0": 22.3}, "1D-202": {"0": 19.8}, "1D-204": {"0": 19.8, "1": 488}, "1D-205": {"0": 18.4}, "2A-002": {"0": 21.8}, "2A-003": {"0": 22.2, "1": 589}, "2A-004": {"0": 22.4, "1": 429}, "2A-005": {"0": 22.2, "1": 442}, "2A-006": {"0": 22.3, "1": 493}, "2A-007": {"0": 22.4, "1": 737}, "2A-201": {"0": 20.4}, "2A-204": {"0": 20.8}, "2B-001": {"0": 23.3, "1": 676}, "2B-002": {"0": 21.9, "1": 699}, "2B-003": {"0": 22.7}, "2B-005": {"0": 21.8}, "2B-006": {"0": 22}, "2B-007": {"0": 22.3}, "2B-008": {"0": 22.1}, "2B-009": {"0": 21.9, "1": 594}, "2B-010": {"0": 22.1}, "2B-012": {"0": 22.4}, "2B-013": {"0": 21.4}, "2B-202": {"0": 21.3}, "2B-210-203": {"0": 20.4}, "2C-001": {"0": 22.2}, "2C-002": {"0": 22.3, "1": 620}, "2C-003": {"0": 21.6, "1": 554}, "2C-004": {"0": 22, "1": 473}, "2C-005": {"0": 22.1, "1": 773}, "2C-006": {"0": 20.9, "1": 541}, "2C-007": {"0": 20.5, "1": 494}, "2C-008": {"0": 20, "1": 494}, "2C-009": {"0": 17.8}, "2C-201": {"0": 18.5}, "2C-210": {"0": 21, "1": 506}, "2D-001": {"0": 21.7}, "2D-002": {"0": 22.4}, "2D-003": {"0": 22.2, "1": 521}, "2D-004": {"0": 21.9, "1": 473}, "2D-005": {"0": 21}, "2D-006": {"0": 21.3, "1": 473}, "2D-007": {"0": 22.4}, "2D-008": {"0": 21.5}, "2D-009": {"0": 22.5, "1": 717}, "2D-010": {"0": 21.5, "1": 521}, "2D-011": {"0": 21.9, "1": 487}, "2D-012": {"0": 21.6, "1": 459}, "2D-013": {"0": 21.8, "1": 453}, "2D-014": {"0": 21.8, "1": 611}, "2D-204": {"0": 20.5, "1": 486}, "2D-205": {"0": 20.2}, "2D-210": {"0": 21, "1": 587}, "3A-001": {"0": 20.7}, "3A-002": {"0": 22.4}, "3A-003": {"0": 22}, "3A-004": {"0": 22.1}, "3A-005": {"0": 21.9}, "3A-006": {"0": 19.6}, "3A-007": {"0": 21.8}, "3A-009": {"0": 22.2}, "3A-010": {"0": 22.4}, "3A-012": {"0": 21.8}, "3A-014": {"0": 22.4, "1": 874}, "3A-201": {"0": 20.4}, "3A-203": {"0": 20.4}, "3B-001": {"0": 22, "1": 829}, "3B-002": {"0": 21.1}, "3B-003": {"0": 22.2}, "3B-004": {"0": 21.6}, "3B-005": {"0": 0}, "3B-007": {"0": 21.2}, "3B-008": {"0": 21.7}, "3B-010": {"0": 22.5}, "3B-011": {"0": 21.8}, "3B-015-Nord": {"0": 0}, "3B-015-Sud": {"0": 0}, "3B15": {"0": 21.2}, "3B16": {"0": 22.1}, "3B17": {"0": 21.3}, "3B18": {"0": 21.6}, "3B19": {"0": 21.5}, "3B-201": {"0": 20.1}, "3B-203": {"0": 20.6}, "3C-006": {"0": 18.1}, "3C-007": {"0": 22.2, "1": 666}, "3C-009": {"0": 22.3}, "3C-010": {"0": 22.3}, "3C-011": {"0": 22.2}, "3C-201": {"0": 18.5}, "3C-203": {"0": 20.3}, "3C-205": {"0": 19}, "3D-001": {"0": 22.1, "1": 612}, "3D-002": {"0": 21.8, "1": 532}, "3D-003": {"0": 22, "1": 540}, "3D-004": {"0": 21.5}, "3D-005": {"0": 22.2}, "3D-006": {"0": 21.8, "1": 470}, "3D-202": {"0": 20.9}, "3D-203": {"0": 20.3}, "4A-001": {"0": 22.2}, "4A-003": {"0": 22}, "4A-004": {"0": 22.5}, "4A-005": {"0": 21.8, "1": 435}, "4A-006": {"0": 21.5}, "4A-008": {"0": 21.6}, "4A-009": {"0": 22.1}, "4A-010": {"0": 22}, "4A-011": {"0": 21.9, "1": 453}, "4A-013": {"0": 20.2}, "4A-400": {"0": 21}, "4A-014": {"0": 21.8, "1": 555}, "4A-015": {"0": 21, "1": 513}, "4A-016": {"0": 20.7, "1": 491}, "4A-017": {"0": 21.9, "1": 459}, "4A-018": {"0": 21.2, "1": 524}, "4A-019": {"0": 21.4, "1": 488}, "4A-020": {"0": 22.1, "1": 981}, "4A-201": {"0": 20.8}, "4A-202": {"0": 20.5}, "4A-203": {"0": 21.2}, "4B-001": {"0": 21.8}, "4B-002": {"0": 21}, "4B-003": {"0": 22.2}, "4B-004": {"0": 22}, "4B-005": {"0": 21.4}, "4B-006": {"0": 21.9}, "4B-007": {"0": 22.4}, "4B-009": {"0": 22.9}, "4B-010": {"0": 22.1}, "4B-011": {"0": 22}, "4B-012": {"0": 21.8}, "4B-013": {"0": 22.5}, "4B-014": {"0": 22.3, "1": 629}, "4B-015": {"0": 22}, "4B-016": {"0": 22}, "4B-017": {"0": 22.6}, "4B-018": {"0": 21.9}, "4B-019": {"0": 20.9}, "4B-020": {"0": 21.9, "1": 981}, "4B-023": {"0": 21.5}, "4B-024": {"0": 22.2}, "4B-025": {"0": 22}, "4B-026": {"0": 21.7}, "4B-203": {"0": 21.3}, "4B-205": {"0": 20.5}, "4C-005": {"0": 22.2}, "4C-007": {"0": 21.4}, "4C-008": {"0": 0}, "4C-009": {"0": 21.7}, "4C-010": {"0": 22.5}, "4C-012": {"0": 22.3, "1": 599}, "4C-013": {"0": 21.4}, "4C-015": {"0": 22.2}, "4C-016": {"0": 22, "1": 552}, "4C-017": {"0": 21.4}, "4C-201": {"0": 22.2}, "4C-204": {"0": 22}, "4D-001": {"0": 22.1}, "4D-002": {"0": 22.3}, "4D-003": {"0": 21.6, "1": 449}, "4D-005": {"0": 22.5}, "4D-006": {"0": 21.7, "1": 482}, "4D-007": {"0": 22}, "4D-008": {"0": 23.2, "1": 651}, "4D-009": {"0": 21.8}, "4D-010": {"0": 22}, "4D-011": {"0": 22.5}, "4D-013": {"0": 22.8}, "4D-202": {"0": 20.6}, "4D-203": {"0": 20.5}, "4D-205": {"0": 20}, "5A-001": {"0": 22.3}, "5A-002": {"0": 22.3}, "5A-003": {"0": 21.3, "1": 486}, "5A-004": {"0": 21.6}, "5A-006": {"0": 21.3, "1": 458}, "5A-007": {"0": 21.6}, "5A-008": {"0": 22.3}, "5A-009": {"0": 22.2}, "5A-010": {"0": 0}, "5A-011": {"0": 22.3}, "5A-012": {"0": 21.9}, "5A-013": {"0": 22.2}, "5A-014": {"0": 21.8}, "5A-015": {"0": 21.8}, "5A-016": {"0": 22.1}, "5A-020": {"0": 22.4}, "5A-021": {"0": 22.1}, "5A-022": {"0": 21.9}, "5A-023": {"0": 22.2}, "5A-024": {"0": 21.6}, "5A-203": {"0": 21.6}, "5B-002": {"0": 0}, "5B-003": {"0": 22.5}, "5B-004": {"0": 21.8}, "5B-005": {"0": 21.5, "1": 553}, "5B-006": {"0": 22.4}, "5B-007": {"0": 21.5}, "5B-008": {"0": 22}, "5B-009": {"0": 22.5, "1": 517}, "5B-010": {"0": 22.7, "1": 666}, "5B-011": {"0": 21.9}, "5B-012": {"0": 21.6}, "5B-013": {"0": 21.8}, "5B-014": {"0": 22}, "5B-015": {"0": 21.9}, "5B-017": {"0": 21.2}, "5B-018": {"0": 21.5}, "5B-019": {"0": 21.8}, "5B-020": {"0": 22.1}, "5B-021": {"0": 21.9}, "5B-022": {"0": 22.6}, "5B-023": {"0": 21.9}, "5B-024": {"0": 21.9}, "5B-025": {"0": 21.4}, "5B-026": {"0": 21.8}, "5B-027": {"0": 21.7}, "5B-202": {"0": 21.5}, "5B-203": {"0": 0}, "5B-204": {"0": 17}, "5B-205": {"0": 17.6}, "5C-001": {"0": 21.8}, "5C-002": {"0": 21.7}, "5C-003": {"0": 21.8}, "5C-004": {"0": 23.8}, "5C-005": {"0": 16.5}, "5C-006": {"0": 21.8}, "5C-007": {"0": 22.9}, "5C-008": {"0": 21.8}, "5C-009": {"0": 23.3, "1": 739}, "5C-010": {"0": 22.2}, "5C-011": {"0": 21.5}, "5C-012": {"0": 22.6}, "5C-013": {"0": 22}, "5C-014": {"0": 26.4}, "5C-015": {"0": 22.5}, "5C-016": {"0": 21.6}, "5C-017": {"0": 23.6}, "5C-018": {"0": 22.3}, "5C-019": {"0": 22.6}, "5C-020": {"0": 21.6}, "5C-021": {"0": 22.4}, "5C-022": {"0": 22.3}, "5C-023": {"0": 21.8}, "5C-024": {"0": 22.3}, "5C-025": {"0": 21.8}, "5C-026": {"0": 22.4}, "5C-027": {"0": 22.5}, "5C-201": {"0": 19.4}, "5D-001": {"0": 21.1}, "5D-002": {"0": 21.9}, "5D-003": {"0": 20.6, "1": 446}, "5D-004": {"0": 20.2, "1": 434}, "5D-005": {"0": 21.7}, "5D-006": {"0": 23.5}, "5D-007": {"0": 21.9, "1": 264}, "5D-008": {"0": 21.6, "1": 504}, "5D-203": {"0": 19.5}, "5D-204": {"0": 19.7}, "5D-205": {"0": 18.9}, "6B-001": {"0": 16.1}}, "comment": "zone : temp\u00e9rature (\u00b0C), CO2 (ppm), occupation (0/1)", "meanTemperature": 2.2, "meanTamb": 21.5}
{"areas": {"0A-001": {"0": 19.8}, "0A-002": {"0": 19.6}, "0A-003": {"0": 20}, "0A-006": {"0": 18.1}, "0A-008": {"0": 19.5}, "0A-009": {"0": 17.1}, "0A-010": {"0": 19.8}, "0B-agora": {"0": 21.2}, "0B-001": {"0": 19.6}, "0B-002_T9": {"0": 20.8}, "0B-002_T10": {"0": 21}, "0B-003": {"0": 20.6}, "0B-004": {"0": 20.2}, "0B-005": {"0": 22}, "0B-006": {"0": 17.9}, "0B-007": {"0": 22.2, "1": 471}, "0B-008": {"0": 17.2}, "0B-009": {"0": 14.6}, "0B-010": {"0": 20.5}, "0B-011": {"0": 18.1}, "0B-012": {"0": 17.1}, "0B-013": {"0": 18}, "0B-014": {"0": 14.7}, "0B-015": {"0": 19, "1": 453}, "0B-203": {"0": 17.6}, "0B-401": {"0": 21.8}, "0B-406": {"0": 21}, "0D-Salle_Poly": {"0": 20.3}, "0D-001": {"0": 21}, "0D-003": {"0": 20.7, "1": 410}, "0D-004": {"0": 21, "1": 440}, "0D-007": {"0": 23.6, "1": 611}, "0D-009": {"0": 21.2}, "0D-012": {"0": 21.7}, "0D-021": {"0": 23.6}, "0D-022": {"0": 21.8}, "0D-023": {"0": 21.1}, "0D-025": {"0": 25.6}, "0D-105": {"0": 21.3}, "0D-200": {"0": 18.3}, "1A-002": {"0": 21.4, "1": 435}, "1A-003": {"0": 22}, "1A-006": {"0": 21.4}, "1A-007": {"0": 22.1}, "1A-008": {"0": 21.9}, "1A-009": {"0": 21.4}, "1A-202": {"0": 21.4}, "1B-001-AJ-AH": {"0": 22.4}, "1B-001-AL-AJ": {"0": 21.1, "1": 410}, "1B-001-AO-AL": {"0": 20.1}, "1B-002": {"0": 21.6, "1": 416}, "1B-003": {"0": 21.9, "1": 400}, "1B-004": {"0": 22, "1": 409}, "1B-005": {"0": 21.8, "1": 413}, "1B-006": {"0": 16.8}, "1B-007": {"0": 22, "1": 676}, "1B-008": {"0": 21.6}, "1B-009": {"0": 21.1}, "1B-010": {"0": 21.7}, "1B-011": {"0": 21.8}, "1B-012": {"0": 22.8, "1": 674}, "1B-013": {"0": 22.1}, "1B-014": {"0": 21.9}, "1B-015": {"0": 22.2}, "1B-016": {"0": 22.1}, "1B-017": {"0": 22.2}, "1B-018": {"0": 22.1}, "1B-202": {"0": 20.5}, "1C-001": {"0": 20.3, "1": 460}, "1C-002": {"0": 21.6, "1": 499}, "1C-003": {"0": 21.3}, "1C-004": {"0": 21.9}, "1C-007": {"0": 21.9}, "1C-008": {"0": 0}, "1C-009": {"0": 0}, "1C-010": {"0": 0}, "1C-011": {"0": 21.9}, "1C-012": {"0": 22.2}, "1C-013": {"0": 22.1}, "1C-201": {"0": 18.5}, "1D-001": {"0": 20.9}, "1D-002": {"0": 22.1}, "1D-004": {"0": 22.6}, "1D-005": {"0": 22.4}, "1D-006": {"0": 22.4}, "1D-007": {"0": 22.3}, "1D-008": {"0": 21.8}, "1D-009": {"0": 22}, "1D-010": {"0": 22.3}, "1D-011": {"0": 22.5}, "1D-012": {"0": 22.5}, "1D-013": {"0": 22.3}, "1D-014": {"0": 22.4}, "1D-015": {"0": 22.5}, "1D-016": {"0": 20.6}, "1D-017": {"0": 22.5}, "1D-018": {"0": 21.8}, "1D-020": {"0": 21.5}, "1D-021": {"0": 22.3}, "1D-022": {"0": 22.3}, "1D-202": {"0": 19.8}, "1D-204": {"0": 19.8, "1": 488}, "1D-205": {"0": 18.4}, "2A-002": {"0": 21.8}, "2A-003": {"0": 22.2, "1": 589}, "2A-004": {"0": 22.4, "1": 429}, "2A-005": {"0": 22.2, "1": 442}, "2A-006": {"0": 22.3, "1": 493}, "2A-007": {"0": 22.4, "1": 737}, "2A-201": {"0": 20.4}, "2A-204": {"0": 20.8}, "2B-001": {"0": 23.3, "1": 676}, "2B-002": {"0": 21.9, "1": 699}, "2B-003": {"0": 22.7}, "2B-005": {"0": 21.8}, "2B-006": {"0": 22}, "2B-007": {"0": 22.3}, "2B-008": {"0": 22.1}, "2B-009": {"0": 21.9, "1": 594}, "2B-010": {"0": 22.1}, "2B-012": {"0": 22.4}, "2B-013": {"0": 21.4}, "2B-202": {"0": 21.3}, "2B-210-203": {"0": 20.4}, "2C-001": {"0": 22.2}, "2C-002": {"0": 22.3, "1": 620}, "2C-003": {"0": 21.6, "1": 554}, "2C-004": {"0": 22, "1": 473}, "2C-005": {"0": 22.1, "1": 773}, "2C-006": {"0": 20.9, "1": 541}, "2C-007": {"0": 20.5, "1": 494}, "2C-008": {"0": 20, "1": 494}, "2C-009": {"0": 17.8}, "2C-201": {"0": 18.5}, "2C-210": {"0": 21, "1": 506}, "2D-001": {"0": 21.7}, "2D-002": {"0": 22.4}, "2D-003": {"0": 22.2, "1": 521}, "2D-004": {"0": 21.9, "1": 473}, "2D-005": {"0": 21}, "2D-006": {"0": 21.3, "1": 473}, "2D-007": {"0": 22.4}, "2D-008": {"0": 21.5}, "2D-009": {"0": 22.5, "1": 717}, "2D-010": {"0": 21.5, "1": 521}, "2D-011": {"0": 21.9, "1": 487}, "2D-012": {"0": 21.6, "1": 459}, "2D-013": {"0": 21.8, "1": 453}, "2D-014": {"0": 21.8, "1": 611}, "2D-204": {"0": 20.5, "1": 486}, "2D-205": {"0": 20.2}, "2D-210": {"0": 21, "1": 587}, "3A-001": {"0": 20.7}, "3A-002": {"0": 22.4}, "3A-003": {"0": 22}, "3A-004": {"0": 22.1}, "3A-005": {"0": 21.9}, "3A-006": {"0": 19.6}, "3A-007": {"0": 21.8}, "3A-009": {"0": 22.2}, "3A-010": {"0": 22.4}, "3A-012": {"0": 21.8}, "3A-014": {"0": 22.4, "1": 874}, "3A-201": {"0": 20.4}, "3A-203": {"0": 20.4}, "3B-001": {"0": 22, "1": 829}, "3B-002": {"0": 21.1}, "3B-003": {"0": 22.2}, "3B-004": {"0": 21.6}, "3B-005": {"0": 0}, "3B-007": {"0": 21.2}, "3B-008": {"0": 21.7}, "3B-010": {"0": 22.5}, "3B-011": {"0": 21.8}, "3B-015-Nord": {"0": 0}, "3B-015-Sud": {"0": 0}, "3B15": {"0": 21.2}, "3B16": {"0": 22.1}, "3B17": {"0": 21.3}, "3B18": {"0": 21.6}, "3B19": {"0": 21.5}, "3B-201": {"0": 20.1}, "3B-203": {"0": 20.6}, "3C-006": {"0": 18.1}, "3C-007": {"0": 22.2, "1": 666}, "3C-009": {"0": 22.3}, "3C-010": {"0": 22.3}, "3C-011": {"0": 22.2}, "3C-201": {"0": 18.5}, "3C-203": {"0": 20.3}, "3C-205": {"0": 19}, "3D-001": {"0": 22.1, "1": 612}, "3D-002": {"0": 21.8, "1": 532}, "3D-003": {"0": 22, "1": 540}, "3D-004": {"0": 21.5}, "3D-005": {"0": 22.2}, "3D-006": {"0": 21.8, "1": 470}, "3D-202": {"0": 20.9}, "3D-203": {"0": 20.3}, "4A-001": {"0": 22.2}, "4A-003": {"0": 22}, "4A-004": {"0": 22.5}, "4A-005": {"0": 21.8, "1": 435}, "4A-006": {"0": 21.5}, "4A-008": {"0": 21.6}, "4A-009": {"0": 22.1}, "4A-010": {"0": 22}, "4A-011": {"0": 21.9, "1": 453}, "4A-013": {"0": 20.2}, "4A-400": {"0": 21}, "4A-014": {"0": 21.8, "1": 555}, "4A-015": {"0": 21, "1": 513}, "4A-016": {"0": 20.7, "1": 491}, "4A-017": {"0": 21.9, "1": 459}, "4A-018": {"0": 21.2, "1": 524}, "4A-019": {"0": 21.4, "1": 488}, "4A-020": {"0": 22.1, "1": 981}, "4A-201": {"0": 20.8}, "4A-202": {"0": 20.5}, "4A-203": {"0": 21.2}, "4B-001": {"0": 21.8}, "4B-002": {"0": 21}, "4B-003": {"0": 22.2}, "4B-004": {"0": 22}, "4B-005": {"0": 21.4}, "4B-006": {"0": 21.9}, "4B-007": {"0": 22.4}, "4B-009": {"0": 22.9}, "4B-010": {"0": 22.1}, "4B-011": {"0": 22}, "4B-012": {"0": 21.8}, "4B-013": {"0": 22.5}, "4B-014": {"0": 22.3, "1": 629}, "4B-015": {"0": 22}, "4B-016": {"0": 22}, "4B-017": {"0": 22.6}, "4B-018": {"0": 21.9}, "4B-019": {"0": 20.9}, "4B-020": {"0": 21.9, "1": 981}, "4B-023": {"0": 21.5}, "4B-024": {"0": 22.2}, "4B-025": {"0": 22}, "4B-026": {"0": 21.7}, "4B-203": {"0": 21.3}, "4B-205": {"0": 20.5}, "4C-005": {"0": 22.2}, "4C-007": {"0": 21.4}, "4C-008": {"0": 0}, "4C-009": {"0": 21.7}, "4C-010": {"0": 22.5}, "4C-012": {"0": 22.3, "1": 599}, "4C-013": {"0": 21.4}, "4C-015": {"0": 22.2}, "4C-016": {"0": 22, "1": 552}, "4C-017": {"0": 21.4}, "4C-201": {"0": 22.2}, "4C-204": {"0": 22}, "4D-001": {"0": 22.1}, "4D-002": {"0": 22.3}, "4D-003": {"0": 21.6, "1": 449}, "4D-005": {"0": 22.5}, "4D-006": {"0": 21.7, "1": 482}, "4D-007": {"0": 22}, "4D-008": {"0": 23.2, "1": 651}, "4D-009": {"0": 21.8}, "4D-010": {"0": 22}, "4D-011": {"0": 22.5}, "4D-013": {"0": 22.8}, "4D-202": {"0": 20.6}, "4D-203": {"0": 20.5}, "4D-205": {"0": 20}, "5A-001": {"0": 22.3}, "5A-002": {"0": 22.3}, "5A-003": {"0": 21.3, "1": 486}, "5A-004": {"0": 21.6}, "5A-006": {"0": 21.3, "1": 458}, "5A-007": {"0": 21.6}, "5A-008": {"0": 22.3}, "5A-009": {"0": 22.2}, "5A-010": {"0": 0}, "5A-011": {"0": 22.3}, "5A-012": {"0": 21.9}, "5A-013": {"0": 22.2}, "5A-014": {"0": 21.8}, "5A-015": {"0": 21.8}, "5A-016": {"0": 22.1}, "5A-020": {"0": 22.4}, "5A-021": {"0": 22.1}, "5A-022": {"0": 21.9}, "5A-023": {"0": 22.2}, "5A-024": {"0": 21.6}, "5A-203": {"0": 21.6}, "5B-002": {"0": 0}, "5B-003": {"0": 22.5}, "5B-004": {"0": 21.8}, "5B-005": {"0": 21.5, "1": 553}, "5B-006": {"0": 22.4}, "5B-007": {"0": 21.5}, "5B-008": {"0": 22}, "5B-009": {"0": 22.5, "1": 517}, "5B-010": {"0": 22.7, "1": 666}, "5B-011": {"0": 21.9}, "5B-012": {"0": 21.6}, "5B-013": {"0": 21.8}, "5B-014": {"0": 22}, "5B-015": {"0": 21.9}, "5B-017": {"0": 21.2}, "5B-018": {"0": 21.5}, "5B-019": {"0": 21.8}, "5B-020": {"0": 22.1}, "5B-021": {"0": 21.9}, "5B-022": {"0": 22.6}, "5B-023": {"0": 21.9}, "5B-024": {"0": 21.9}, "5B-025": {"0": 21.4}, "5B-026": {"0": 21.8}, "5B-027": {"0": 21.7}, "5B-202": {"0": 21.5}, "5B-203": {"0": 0}, "5B-204": {"0": 17}, "5B-205": {"0": 17.6}, "5C-001": {"0": 21.8}, "5C-002": {"0": 21.7}, "5C-003": {"0": 21.8}, "5C-004": {"0": 23.8}, "5C-005": {"0": 16.5}, "5C-006": {"0": 21.8}, "5C-007": {"0": 22.9}, "5C-008": {"0": 21.8}, "5C-009": {"0": 23.3, "1": 739}, "5C-010": {"0": 22.2}, "5C-011": {"0": 21.5}, "5C-012": {"0": 22.6}, "5C-013": {"0": 22}, "5C-014": {"0": 26.4}, "5C-015": {"0": 22.5}, "5C-016": {"0": 21.6}, "5C-017": {"0": 23.6}, "5C-018": {"0": 22.3}, "5C-019": {"0": 22.6}, "5C-020": {"0": 21.6}, "5C-021": {"0": 22.4}, "5C-022": {"0": 22.3}, "5C-023": {"0": 21.8}, "5C-024": {"0": 22.3}, "5C-025": {"0": 21.8}, "5C-026": {"0": 22.4}, "5C-027": {"0": 22.5}, "5C-201": {"0": 19.4}, "5D-001": {"0": 21.1}, "5D-002": {"0": 21.9}, "5D-003": {"0": 20.6, "1": 446}, "5D-004": {"0": 20.2, "1": 434}, "5D-005": {"0": 21.7}, "5D-006": {"0": 23.5}, "5D-007": {"0": 21.9, "1": 264}, "5D-008": {"0": 21.6, "1": 504}, "5D-203": {"0": 19.5}, "5D-204": {"0": 19.7}, "5D-205": {"0": 18.9}, "6B-001": {"0": 16.1}}, "comment": "zone : temp\u00e9rature (\u00b0C), CO2 (ppm), occupation (0/1)", "meanTemperature": 2.2, "meanTamb": 21.5}
{"areas": {"0A-001": {"0": 19.8}, "0A-002": {"0": 19.6}, "0A-003": {"0": 20}, "0A-006": {"0": 18.1}, "0A-008": {"0": 19.5}, "0A-009": {"0": 17.1}, "0A-010": {"0": 19.8}, "0B-agora": {"0": 21.2}, "0B-001": {"0": 19.6}, "0B-002_T9": {"0": 20.8}, "0B-002_T10": {"0": 21}, "0B-003": {"0": 20.6}, "0B-004": {"0": 20.2}, "0B-005": {"0": 22}, "0B-006": {"0": 17.9}, "0B-007": {"0": 22.2, "1": 471}, "0B-008": {"0": 17.2}, "0B-009": {"0": 14.6}, "0B-010": {"0": 20.5}, "0B-011": {"0": 18.1}, "0B-012": {"0": 17.1}, "0B-013": {"0": 18}, "0B-014": {"0": 14.7}, "0B-015": {"0": 19, "1": 453}, "0B-203": {"0": 17.6}, "0B-401": {"0": 21.8}, "0B-406": {"0": 21}, "0D-Salle_Poly": {"0": 20.3}, "0D-001": {"0": 21}, "0D-003": {"0": 20.7, "1": 410}, "0D-004": {"0": 21, "1": 440}, "0D-007": {"0": 23.6, "1": 611}, "0D-009": {"0": 21.2}, "0D-012": {"0": 21.7}, "0D-021": {"0": 23.6}, "0D-022": {"0": 21.8}, "0D-023": {"0": 21.1}, "0D-025": {"0": 25.6}, "0D-105": {"0": 21.3}, "0D-200": {"0": 18.3}, "1A-002": {"0": 21.4, "1": 435}, "1A-003": {"0": 22}, "1A-006": {"0": 21.4}, "1A-007": {"0": 22.1}, "1A-008": {"0": 21.9}, "1A-009": {"0": 21.4}, "1A-202": {"0": 21.4}, "1B-001-AJ-AH": {"0": 22.4}, "1B-001-AL-AJ": {"0": 21.1, "1": 410}, "1B-001-AO-AL": {"0": 20.1}, "1B-002": {"0": 21.6, "1": 416}, "1B-003": {"0": 21.9, "1": 400}, "1B-004": {"0": 22, "1": 409}, "1B-005": {"0": 21.8, "1": 413}, "1B-006": {"0": 16.8}, "1B-007": {"0": 22, "1": 676}, "1B-008": {"0": 21.6}, "1B-009": {"0": 21.1}, "1B-010": {"0": 21.7}, "1B-011": {"0": 21.8}, "1B-012": {"0": 22.8, "1": 674}, "1B-013": {"0": 22.1}, "1B-014": {"0": 21.9}, "1B-015": {"0": 22.2}, "1B-016": {"0": 22.1}, "1B-017": {"0": 22.2}, "1B-018": {"0": 22.1}, "1B-202": {"0": 20.5}, "1C-001": {"0": 20.3, "1": 460}, "1C-002": {"0": 21.6, "1": 499}, "1C-003": {"0": 21.3}, "1C-004": {"0": 21.9}, "1C-007": {"0": 21.9}, "1C-008": {"0": 0}, "1C-009": {"0": 0}, "1C-010": {"0": 0}, "1C-011": {"0": 21.9}, "1C-012": {"0": 22.2}, "1C-013": {"0": 22.1}, "1C-201": {"0": 18.5}, "1D-001": {"0": 20.9}, "1D-002": {"0": 22.1}, "1D-004": {"0": 22.6}, "1D-005": {"0": 22.4}, "1D-006": {"0": 22.4}, "1D-007": {"0": 22.3}, "1D-008": {"0": 21.8}, "1D-009": {"0": 22}, "1D-010": {"0": 22.3}, "1D-011": {"0": 22.5}, "1D-012": {"0": 22.5}, "1D-013": {"0": 22.3}, "1D-014": {"0": 22.4}, "1D-015": {"0": 22.5}, "1D-016": {"0": 20.6}, "1D-017": {"0": 22.5}, "1D-018": {"0": 21.8}, "1D-020": {"0": 21.5}, "1D-021": {"0": 22.3}, "1D-022": {"0": 22.3}, "1D-202": {"0": 19.8}, "1D-204": {"0": 19.8, "1": 488}, "1D-205": {"0": 18.4}, "2A-002": {"0": 21.8}, "2A-003": {"0": 22.2, "1": 589}, "2A-004": {"0": 22.4, "1": 429}, "2A-005": {"0": 22.2, "1": 442}, "2A-006": {"0": 22.3, "1": 493}, "2A-007": {"0": 22.4, "1": 737}, "2A-201": {"0": 20.4}, "2A-204": {"0": 20.8}, "2B-001": {"0": 23.3, "1": 676}, "2B-002": {"0": 21.9, "1": 699}, "2B-003": {"0": 22.7}, "2B-005": {"0": 21.8}, "2B-006": {"0": 22}, "2B-007": {"0": 22.3}, "2B-008": {"0": 22.1}, "2B-009": {"0": 21.9, "1": 594}, "2B-010": {"0": 22.1}, "2B-012": {"0": 22.4}, "2B-013": {"0": 21.4}, "2B-202": {"0": 21.3}, "2B-210-203": {"0": 20.4}, "2C-001": {"0": 22.2}, "2C-002": {"0": 22.3, "1": 620}, "2C-003": {"0": 21.6, "1": 554}, "2C-004": {"0": 22, "1": 473}, "2C-005": {"0": 22.1, "1": 773}, "2C-006": {"0": 20.9, "1": 541}, "2C-007": {"0": 20.5, "1": 494}, "2C-008": {"0": 20, "1": 494}, "2C-009": {"0": 17.8}, "2C-201": {"0": 18.5}, "2C-210": {"0": 21, "1": 506}, "2D-001": {"0": 21.7}, "2D-002": {"0": 22.4}, "2D-003": {"0": 22.2, "1": 521}, "2D-004": {"0": 21.9, "1": 473}, "2D-005": {"0": 21}, "2D-006": {"0": 21.3, "1": 473}, "2D-007": {"0": 22.4}, "2D-008": {"0": 21.5}, "2D-009": {"0": 22.5, "1": 717}, "2D-010": {"0": 21.5, "1": 521}, "2D-011": {"0": 21.9, "1": 487}, "2D-012": {"0": 21.6, "1": 459}, "2D-013": {"0": 21.8, "1": 453}, "2D-014": {"0": 21.8, "1": 611}, "2D-204": {"0": 20.5, "1": 486}, "2D-205": {"0": 20.2}, "2D-210": {"0": 21, "1": 587}, "3A-001": {"0": 20.7}, "3A-002": {"0": 22.4}, "3A-003": {"0": 22}, "3A-004": {"0": 22.1}, "3A-005": {"0": 21.9}, "3A-006": {"0": 19.6}, "3A-007": {"0": 21.8}, "3A-009": {"0": 22.2}, "3A-010": {"0": 22.4}, "3A-012": {"0": 21.8}, "3A-014": {"0": 22.4, "1": 874}, "3A-201": {"0": 20.4}, "3A-203": {"0": 20.4}, "3B-001": {"0": 22, "1": 829}, "3B-002": {"0": 21.1}, "3B-003": {"0": 22.2}, "3B-004": {"0": 21.6}, "3B-005": {"0": 0}, "3B-007": {"0": 21.2}, "3B-008": {"0": 21.7}, "3B-010": {"0": 22.5}, "3B-011": {"0": 21.8}, "3B-015-Nord": {"0": 0}, "3B-015-Sud": {"0": 0}, "3B15": {"0": 21.2}, "3B16": {"0": 22.1}, "3B17": {"0": 21.3}, "3B18": {"0": 21.6}, "3B19": {"0": 21.5}, "3B-201": {"0": 20.1}, "3B-203": {"0": 20.6}, "3C-006": {"0": 18.1}, "3C-007": {"0": 22.2, "1": 666}, "3C-009": {"0": 22.3}, "3C-010": {"0": 22.3}, "3C-011": {"0": 22.2}, "3C-201": {"0": 18.5}, "3C-203": {"0": 20.3}, "3C-205": {"0": 19}, "3D-001": {"0": 22.1, "1": 612}, "3D-002": {"0": 21.8, "1": 532}, "3D-003": {"0": 22, "1": 540}, "3D-004": {"0": 21.5}, "3D-005": {"0": 22.2}, "3D-006": {"0": 21.8, "1": 470}, "3D-202": {"0": 20.9}, "3D-203": {"0": 20.3}, "4A-001": {"0": 22.2}, "4A-003": {"0": 22}, "4A-004": {"0": 22.5}, "4A-005": {"0": 21.8, "1": 435}, "4A-006": {"0": 21.5}, "4A-008": {"0": 21.6}, "4A-009": {"0": 22.1}, "4A-010": {"0": 22}, "4A-011": {"0": 21.9, "1": 453}, "4A-013": {"0": 20.2}, "4A-400": {"0": 21}, "4A-014": {"0": 21.8, "1": 555}, "4A-015": {"0": 21, "1": 513}, "4A-016": {"0": 20.7, "1": 491}, "4A-017": {"0": 21.9, "1": 459}, "4A-018": {"0": 21.2, "1": 524}, "4A-019": {"0": 21.4, "1": 488}, "4A-020": {"0": 22.1, "1": 981}, "4A-201": {"0": 20.8}, "4A-202": {"0": 20.5}, "4A-203": {"0": 21.2}, "4B-001": {"0": 21.8}, "4B-002": {"0": 21}, "4B-003": {"0": 22.2}, "4B-004": {"0": 22}, "4B-005": {"0": 21.4}, "4B-006": {"0": 21.9}, "4B-007": {"0": 22.4}, "4B-009": {"0": 22.9}, "4B-010": {"0": 22.1}, "4B-011": {"0": 22}, "4B-012": {"0": 21.8}, "4B-013": {"0": 22.5}, "4B-014": {"0": 22.3, "1": 629}, "4B-015": {"0": 22}, "4B-016": {"0": 22}, "4B-017": {"0": 22.6}, "4B-018": {"0": 21.9}, "4B-019": {"0": 20.9}, "4B-020": {"0": 21.9, "1": 981}, "4B-023": {"0": 21.5}, "4B-024": {"0": 22.2}, "4B-025": {"0": 22}, "4B-026": {"0": 21.7}, "4B-203": {"0": 21.3}, "4B-205": {"0": 20.5}, "4C-005": {"0": 22.2}, "4C-007": {"0": 21.4}, "4C-008": {"0": 0}, "4C-009": {"0": 21.7}, "4C-010": {"0": 22.5}, "4C-012": {"0": 22.3, "1": 599}, "4C-013": {"0": 21.4}, "4C-015": {"0": 22.2}, "4C-016": {"0": 22, "1": 552}, "4C-017": {"0": 21.4}, "4C-201": {"0": 22.2}, "4C-204": {"0": 22}, "4D-001": {"0": 22.1}, "4D-002": {"0": 22.3}, "4D-003": {"0": 21.6, "1": 449}, "4D-005": {"0": 22.5}, "4D-006": {"0": 21.7, "1": 482}, "4D-007": {"0": 22}, "4D-008": {"0": 23.2, "1": 651}, "4D-009": {"0": 21.8}, "4D-010": {"0": 22}, "4D-011": {"0": 22.5}, "4D-013": {"0": 22.8}, "4D-202": {"0": 20.6}, "4D-203": {"0": 20.5}, "4D-205": {"0": 20}, "5A-001": {"0": 22.3}, "5A-002": {"0": 22.3}, "5A-003": {"0": 21.3, "1": 486}, "5A-004": {"0": 21.6}, "5A-006": {"0": 21.3, "1": 458}, "5A-007": {"0": 21.6}, "5A-008": {"0": 22.3}, "5A-009": {"0": 22.2}, "5A-010": {"0": 0}, "5A-011": {"0": 22.3}, "5A-012": {"0": 21.9}, "5A-013": {"0": 22.2}, "5A-014": {"0": 21.8}, "5A-015": {"0": 21.8}, "5A-016": {"0": 22.1}, "5A-020": {"0": 22.4}, "5A-021": {"0": 22.1}, "5A-022": {"0": 21.9}, "5A-023": {"0": 22.2}, "5A-024": {"0": 21.6}, "5A-203": {"0": 21.6}, "5B-002": {"0": 0}, "5B-003": {"0": 22.5}, "5B-004": {"0": 21.8}, "5B-005": {"0": 21.5, "1": 553}, "5B-006": {"0": 22.4}, "5B-007": {"0": 21.5}, "5B-008": {"0": 22}, "5B-009": {"0": 22.5, "1": 517}, "5B-010": {"0": 22.7, "1": 666}, "5B-011": {"0": 21.9}, "5B-012": {"0": 21.6}, "5B-013": {"0": 21.8}, "5B-014": {"0": 22}, "5B-015": {"0": 21.9}, "5B-017": {"0": 21.2}, "5B-018": {"0": 21.5}, "5B-019": {"0": 21.8}, "5B-020": {"0": 22.1}, "5B-021": {"0": 21.9}, "5B-022": {"0": 22.6}, "5B-023": {"0": 21.9}, "5B-024": {"0": 21.9}, "5B-025": {"0": 21.4}, "5B-026": {"0": 21.8}, "5B-027": {"0": 21.7}, "5B-202": {"0": 21.5}, "5B-203": {"0": 0}, "5B-204": {"0": 17}, "5B-205": {"0": 17.6}, "5C-001": {"0": 21.8}, "5C-002": {"0": 21.7}, "5C-003": {"0": 21.8}, "5C-004": {"0": 23.8}, "5C-005": {"0": 16.5}, "5C-006": {"0": 21.8}, "5C-007": {"0": 22.9}, "5C-008": {"0": 21.8}, "5C-009": {"0": 23.3, "1": 739}, "5C-010": {"0": 22.2}, "5C-011": {"0": 21.5}, "5C-012": {"0": 22.6}, "5C-013": {"0": 22}, "5C-014": {"0": 26.4}, "5C-015": {"0": 22.5}, "5C-016": {"0": 21.6}, "5C-017": {"0": 23.6}, "5C-018": {"0": 22.3}, "5C-019": {"0": 22.6}, "5C-020": {"0": 21.6}, "5C-021": {"0": 22.4}, "5C-022": {"0": 22.3}, "5C-023": {"0": 21.8}, "5C-024": {"0": 22.3}, "5C-025": {"0": 21.8}, "5C-026": {"0": 22.4}, "5C-027": {"0": 22.5}, "5C-201": {"0": 19.4}, "5D-001": {"0": 21.1}, "5D-002": {"0": 21.9}, "5D-003": {"0": 20.6, "1": 446}, "5D-004": {"0": 20.2, "1": 434}, "5D-005": {"0": 21.7}, "5D-006": {"0": 23.5}, "5D-007": {"0": 21.9, "1": 264}, "5D-008": {"0": 21.6, "1": 504}, "5D-203": {"0": 19.5}, "5D-204": {"0": 19.7}, "5D-205": {"0": 18.9}, "6B-001": {"0": 16.1}}, "comment": "zone : temp\u00e9rature (\u00b0C), CO2 (ppm), occupation (0/1)", "meanTemperature": 2.2, "meanTamb": 21.5}
